"","Age","Number.of.sexual.partners","First.sexual.intercourse","Num.of.pregnancies","Smokes","Smokes..years.","Smokes..packs.year.","Hormonal.Contraceptives","Hormonal.Contraceptives..years.","IUD","IUD..years.","STDs","STDs..number.","STDs.condylomatosis","STDs.cervical.condylomatosis","STDs.vaginal.condylomatosis","STDs.vulvo.perineal.condylomatosis","STDs.syphilis","STDs.pelvic.inflammatory.disease","STDs.genital.herpes","STDs.molluscum.contagiosum","STDs.AIDS","STDs.HIV","STDs.Hepatitis.B","STDs.HPV","STDs..Number.of.diagnosis","STDs..Time.since.first.diagnosis","STDs..Time.since.last.diagnosis","Dx.Cancer","Dx.CIN","Dx.HPV","Dx","Hinselmann","Schiller","Citology","Biopsy"
"1","Young","Normal","Early","Normal",0,"None",0,0,0,0,0,0,0,0,0,0,0,0,0,0,0,0,0,0,0,0,NA,NA,0,0,0,0,0,0,0,"0"
"2","Young","Few","Early","Normal",0,"None",0,0,0,0,0,0,0,0,0,0,0,0,0,0,0,0,0,0,0,0,NA,NA,0,0,0,0,0,0,0,"0"
"3","Midlife","Few",NA,"Normal",0,"None",0,0,0,0,0,0,0,0,0,0,0,0,0,0,0,0,0,0,0,0,NA,NA,0,0,0,0,0,0,0,"0"
"4","Older","Normal","Normal","Many",1,"Many",37,1,3,0,0,0,0,0,0,0,0,0,0,0,0,0,0,0,0,0,NA,NA,1,0,1,0,0,0,0,"0"
"5","Midlife","Normal","Late","Many",0,"None",0,1,15,0,0,0,0,0,0,0,0,0,0,0,0,0,0,0,0,0,NA,NA,0,0,0,0,0,0,0,"0"
"6","Midlife","Normal","Late","Normal",0,"None",0,0,0,0,0,0,0,0,0,0,0,0,0,0,0,0,0,0,0,0,NA,NA,0,0,0,0,0,0,0,"0"
"7","Older","Normal","Normal","Many",1,"Many",3.4,0,0,1,7,0,0,0,0,0,0,0,0,0,0,0,0,0,0,0,NA,NA,0,0,0,0,1,1,0,"1"
"8","Young","Few","Late","Normal",0,"None",0,1,2,1,7,0,0,0,0,0,0,0,0,0,0,0,0,0,0,0,NA,NA,0,0,0,0,0,0,0,"0"
"9","Midlife","Few","Normal","Many",0,"None",0,0,0,0,0,0,0,0,0,0,0,0,0,0,0,0,0,0,0,0,NA,NA,1,0,1,1,0,0,0,"0"
"10","Midlife","Normal","Early",NA,1,"Few",2.8,0,0,NA,NA,0,0,0,0,0,0,0,0,0,0,0,0,0,0,0,NA,NA,0,0,0,0,0,0,0,"0"
"11","Midlife","Normal","Late","Many",0,"None",0,1,2,0,0,0,0,0,0,0,0,0,0,0,0,0,0,0,0,0,NA,NA,0,0,0,0,0,0,0,"0"
"12","Midlife","Few","Normal","Normal",0,"None",0,1,8,0,0,0,0,0,0,0,0,0,0,0,0,0,0,0,0,0,NA,NA,0,0,0,0,0,0,0,"0"
"13","Midlife","Normal","Early","Many",0,"None",0,1,10,1,5,0,0,0,0,0,0,0,0,0,0,0,0,0,0,0,NA,NA,0,0,0,0,0,0,0,"0"
"14","Midlife","Few","Late","Normal",0,"None",0,1,5,0,0,0,0,0,0,0,0,0,0,0,0,0,0,0,0,0,NA,NA,0,0,0,0,0,0,0,"0"
"15","Midlife","Few","Normal","Many",0,"None",0,0,0,1,8,0,0,0,0,0,0,0,0,0,0,0,0,0,0,0,NA,NA,0,0,0,0,0,0,0,"0"
"16","Midlife","Normal","Normal","Normal",0,"None",0,1,15,0,0,0,0,0,0,0,0,0,0,0,0,0,0,0,0,0,NA,NA,0,0,0,0,0,0,0,"0"
"17","Midlife","Normal","Late","Normal",0,"None",0,1,0.2,0,0,0,0,0,0,0,0,0,0,0,0,0,0,0,0,0,NA,NA,0,0,0,0,0,0,0,"0"
"18","Midlife","Normal","Early","Many",0,"None",0,1,3,0,0,0,0,0,0,0,0,0,0,0,0,0,0,0,0,0,NA,NA,0,0,0,0,0,0,0,"0"
"19","Midlife","Few","Normal",NA,0,"None",0,1,7,1,6,1,2,1,0,0,1,0,0,0,0,0,0,0,0,0,NA,NA,0,0,0,0,0,0,0,"0"
"20","Midlife","Few","Late",NA,0,"None",0,0,0,1,1,0,0,0,0,0,0,0,0,0,0,0,0,0,0,0,NA,NA,0,0,0,0,0,0,0,"0"
"21","Midlife","Few","Normal","Many",0,"None",0,1,15,0,0,0,0,0,0,0,0,0,0,0,0,0,0,0,0,0,NA,NA,0,0,0,0,0,0,0,"0"
"22","Midlife","Normal","Normal","Many",0,"None",0,1,10,0,0,1,1,0,0,0,0,1,0,0,0,0,0,0,0,1,21,21,0,0,0,0,0,0,0,"0"
"23","Midlife","Few","Normal","Normal",0,"None",0,1,0.2,0,0,1,2,1,0,0,1,0,0,0,0,0,0,0,0,1,2,2,0,0,0,0,0,1,1,"1"
"24","Midlife","Few","Normal","Normal",0,"None",0,1,15,0,0,0,0,0,0,0,0,0,0,0,0,0,0,0,0,0,NA,NA,1,0,1,0,1,1,0,"1"
"25","Midlife","Normal","Early","Normal",0,"None",0,1,3,0,0,0,0,0,0,0,0,0,0,0,0,0,0,0,0,0,NA,NA,0,0,0,0,0,0,0,"0"
"26","Midlife","Normal","Normal","Normal",0,"None",0,0,0,0,0,0,0,0,0,0,0,0,0,0,0,0,0,0,0,0,NA,NA,0,0,0,0,0,0,0,"0"
"27","Midlife","Normal","Late","Normal",0,"None",0,0,0,1,1,0,0,0,0,0,0,0,0,0,0,0,0,0,0,0,NA,NA,0,0,0,0,0,0,0,"0"
"28","Midlife","Few","Normal","Many",0,"None",0,0,0,0,0,0,0,0,0,0,0,0,0,0,0,0,0,0,0,0,NA,NA,0,0,0,0,0,0,0,"0"
"29","Midlife","Normal","Late","Normal",1,"Few",0,0,0,0,0,0,0,0,0,0,0,0,0,0,0,0,0,0,0,0,NA,NA,0,0,0,0,0,0,0,"0"
"30","Midlife","Many","Late","Normal",0,"None",0,1,0.2,0,0,0,0,0,0,0,0,0,0,0,0,0,0,0,0,0,NA,NA,0,0,0,0,0,0,0,"0"
"31","Midlife","Normal","Normal","Normal",0,"None",0,1,22,1,0.6,0,0,0,0,0,0,0,0,0,0,0,0,0,0,0,NA,NA,0,0,0,0,0,0,0,"0"
"32","Midlife","Few","Late","Normal",0,"None",0,1,19,1,8,0,0,0,0,0,0,0,0,0,0,0,0,0,0,0,NA,NA,0,0,0,0,0,0,0,"0"
"33","Midlife","Normal","Normal","Many",1,"Few",0.5,1,10,0,0,1,1,0,0,0,0,1,0,0,0,0,0,0,0,0,NA,NA,0,0,0,0,0,0,0,"0"
"34","Midlife","Normal","Early","Normal",0,"None",0,1,0.5,1,2,0,0,0,0,0,0,0,0,0,0,0,0,0,0,0,NA,NA,0,0,0,0,0,0,0,"0"
"35","Midlife","Few","Early","Normal",0,"None",0,1,0.5,1,19,0,0,0,0,0,0,0,0,0,0,0,0,0,0,0,NA,NA,0,0,0,0,0,1,0,"0"
"36","Midlife","Normal","Normal","Many",0,"None",0,1,1,1,0.5,0,0,0,0,0,0,0,0,0,0,0,0,0,0,0,NA,NA,0,0,0,0,0,0,0,"0"
"37","Midlife","Few","Normal","Many",0,"None",0,1,1,0,0,0,0,0,0,0,0,0,0,0,0,0,0,0,0,0,NA,NA,0,0,0,0,0,0,0,"0"
"38","Midlife",NA,"Normal","Normal",0,"None",0,1,0.6,0,0,0,0,0,0,0,0,0,0,0,0,0,0,0,0,0,NA,NA,0,0,0,0,0,0,0,"0"
"39","Midlife","Few","Late","Many",0,"None",0,0,0,0,0,0,0,0,0,0,0,0,0,0,0,0,0,0,0,0,NA,NA,0,0,0,0,0,0,0,"0"
"40","Midlife","Few","Normal","Normal",0,"None",0,1,2,0,0,0,0,0,0,0,0,0,0,0,0,0,0,0,0,0,NA,NA,0,0,0,0,0,0,0,"0"
"41","Midlife",NA,"Normal","Many",0,"None",0,0,0,0,0,0,0,0,0,0,0,0,0,0,0,0,0,0,0,0,NA,NA,0,0,0,0,0,0,0,"0"
"42","Midlife","Few","Normal",NA,0,"None",0,0,0,NA,NA,1,1,0,0,0,0,0,0,0,0,0,1,0,0,1,15,15,0,1,0,1,0,1,0,"1"
"43","Midlife","Normal","Normal","Normal",1,"Few",2.4,1,9,0,0,0,0,0,0,0,0,0,0,0,0,0,0,0,0,0,NA,NA,0,0,0,0,0,0,0,"0"
"44","Midlife","Normal","Normal","Normal",0,"None",0,0,0,0,0,0,0,0,0,0,0,0,0,0,0,0,0,0,0,0,NA,NA,0,0,0,0,0,0,0,"0"
"45","Midlife","Normal","Normal","Normal",1,"Normal",6,1,13,0,0,0,0,0,0,0,0,0,0,0,0,0,0,0,0,0,NA,NA,0,0,0,0,0,1,0,"1"
"46","Midlife","Few","Normal","Many",0,"None",0,1,0.2,1,5,0,0,0,0,0,0,0,0,0,0,0,0,0,0,0,NA,NA,0,0,0,0,0,0,0,"0"
"47","Midlife","Few","Normal","Normal",NA,NA,NA,1,5,0,0,0,0,0,0,0,0,0,0,0,0,0,0,0,0,0,NA,NA,0,0,0,0,0,0,0,"0"
"48","Midlife","Few","Normal","Normal",0,"None",0,0,0,1,1,0,0,0,0,0,0,0,0,0,0,0,0,0,0,0,NA,NA,0,0,0,0,0,0,0,"0"
"49","Midlife","Few","Normal","Many",0,"None",0,0,0,1,17,0,0,0,0,0,0,0,0,0,0,0,0,0,0,0,NA,NA,0,0,0,0,0,0,0,"0"
"50","Midlife","Normal","Normal","Normal",0,"None",0,1,0.2,0,0,0,0,0,0,0,0,0,0,0,0,0,0,0,0,0,NA,NA,0,0,0,0,0,0,0,"0"
"51","Midlife","Normal","Early","Many",0,"None",0,1,0.2,1,1,0,0,0,0,0,0,0,0,0,0,0,0,0,0,0,NA,NA,0,0,0,0,0,0,0,"0"
"52","Midlife","Few","Normal","Normal",0,"None",0,0,0,0,0,0,0,0,0,0,0,0,0,0,0,0,0,0,0,0,NA,NA,0,0,0,0,0,0,0,"0"
"53","Midlife","Normal","Normal","Normal",0,"None",0,1,0.5,0,0,0,0,0,0,0,0,0,0,0,0,0,0,0,0,0,NA,NA,0,0,0,0,0,0,0,"0"
"54","Midlife","Normal","Normal","Many",1,"Many",9,0,0,0,0,0,0,0,0,0,0,0,0,0,0,0,0,0,0,0,NA,NA,0,0,0,0,0,0,0,"0"
"55","Midlife","Few","Normal","Normal",0,"None",0,1,11,0,0,0,0,0,0,0,0,0,0,0,0,0,0,0,0,0,NA,NA,0,0,0,0,0,0,0,"0"
"56","Midlife","Normal","Normal","Many",0,"None",0,1,15,0,0,0,0,0,0,0,0,0,0,0,0,0,0,0,0,0,NA,NA,0,0,0,0,0,0,0,"0"
"57","Midlife","Normal","Early","Many",0,"None",0,0,0,0,0,0,0,0,0,0,0,0,0,0,0,0,0,0,0,0,NA,NA,0,0,0,0,0,0,0,"0"
"58","Midlife","Normal","Late","Many",1,"Normal",1.6,1,0.2,0,0,0,0,0,0,0,0,0,0,0,0,0,0,0,0,0,NA,NA,0,0,0,0,1,1,0,"0"
"59","Midlife","Few","Normal","Many",0,"None",0,1,1,0,0,0,0,0,0,0,0,0,0,0,0,0,0,0,0,0,NA,NA,0,0,0,0,1,1,1,"0"
"60","Midlife","Normal","Normal","Many",0,"None",0,1,7,1,0.1,1,2,1,0,0,1,0,0,0,0,0,0,0,0,1,19,19,0,0,0,0,0,0,0,"0"
"61","Midlife","Normal","Normal","Normal",0,"None",0,1,5,0,0,0,0,0,0,0,0,0,0,0,0,0,0,0,0,0,NA,NA,0,0,0,0,0,0,0,"0"
"62","Midlife","Normal","Normal","Many",1,"Many",19,1,4,0,0,0,0,0,0,0,0,0,0,0,0,0,0,0,0,0,NA,NA,0,0,0,0,0,0,0,"0"
"63","Midlife","Few","Late","Normal",0,"None",0,1,5,0,0,0,0,0,0,0,0,0,0,0,0,0,0,0,0,0,NA,NA,0,0,0,0,0,0,0,"0"
"64","Midlife","Few","Normal","Normal",0,"None",0,1,12,1,0.2,1,2,1,0,0,1,0,0,0,0,0,0,0,0,0,NA,NA,0,0,0,0,0,0,0,"0"
"65","Midlife","Few","Early","Many",0,"None",0,1,16,0,0,0,0,0,0,0,0,0,0,0,0,0,0,0,0,0,NA,NA,1,0,1,0,0,1,0,"1"
"66","Midlife","Normal","Normal","Normal",0,"None",0,1,3,1,8,0,0,0,0,0,0,0,0,0,0,0,0,0,0,0,NA,NA,0,0,0,0,0,0,0,"0"
"67","Midlife","Normal","Normal","Normal",0,"None",0,1,5,0,0,0,0,0,0,0,0,0,0,0,0,0,0,0,0,0,NA,NA,0,0,0,0,0,0,0,"0"
"68","Midlife","Normal","Normal","Normal",1,"Many",21,0,0,1,7,0,0,0,0,0,0,0,0,0,0,0,0,0,0,0,NA,NA,0,0,0,0,0,0,0,"0"
"69","Midlife","Normal","Normal","Normal",0,"None",0,0,0,1,10,1,2,1,0,0,1,0,0,0,0,0,0,0,0,1,3,3,0,0,0,0,0,0,0,"0"
"70","Midlife","Normal","Late","Normal",0,"None",0,1,0.3,0,0,0,0,0,0,0,0,0,0,0,0,0,0,0,0,0,NA,NA,0,0,0,0,0,0,0,"0"
"71","Midlife","Normal","Normal","Normal",0,"None",0,1,15,0,0,0,0,0,0,0,0,0,0,0,0,0,0,0,0,0,NA,NA,0,0,0,0,0,0,0,"0"
"72","Midlife",NA,NA,"Normal",0,"None",0,NA,NA,NA,NA,NA,NA,NA,NA,NA,NA,NA,NA,NA,NA,NA,NA,NA,NA,0,NA,NA,0,0,0,0,0,0,0,"0"
"73","Midlife","Few","Late","Normal",0,"None",0,1,0.3,0,0,0,0,0,0,0,0,0,0,0,0,0,0,0,0,0,NA,NA,0,0,0,0,0,0,0,"0"
"74","Midlife","Few","Normal","Normal",0,"None",0,1,2,0,0,0,0,0,0,0,0,0,0,0,0,0,0,0,0,0,NA,NA,0,0,0,0,0,0,0,"0"
"75","Midlife","Few","Normal","Normal",1,"Normal",0.3,NA,NA,NA,NA,NA,NA,NA,NA,NA,NA,NA,NA,NA,NA,NA,NA,NA,NA,0,NA,NA,0,0,0,0,0,0,0,"0"
"76","Midlife","Few","Late","Normal",0,"None",0,1,1,0,0,0,0,0,0,0,0,0,0,0,0,0,0,0,0,0,NA,NA,0,0,0,0,0,0,0,"0"
"77","Midlife","Normal","Early","Many",0,"None",0,1,1,1,2,0,0,0,0,0,0,0,0,0,0,0,0,0,0,0,NA,NA,0,0,0,0,0,0,0,"0"
"78","Midlife","Normal","Late","Normal",0,"None",0,1,2,0,0,0,0,0,0,0,0,0,0,0,0,0,0,0,0,0,NA,NA,0,0,0,0,0,0,0,"0"
"79","Midlife","Normal","Normal","Many",1,"Normal",2.6,1,7,0,0,1,1,0,0,0,0,1,0,0,0,0,0,0,0,1,12,12,0,0,0,0,0,1,0,"0"
"80","Midlife","Few","Normal","Normal",0,"None",0,1,0.5,0,0,0,0,0,0,0,0,0,0,0,0,0,0,0,0,0,NA,NA,0,0,0,0,0,0,0,"0"
"81","Midlife","Few","Late","Normal",0,"None",0,1,0.2,0,0,0,0,0,0,0,0,0,0,0,0,0,0,0,0,0,NA,NA,0,0,0,0,0,0,0,"0"
"82","Midlife","Normal","Early","Normal",1,"Many",0.8,0,0,1,11,0,0,0,0,0,0,0,0,0,0,0,0,0,0,0,NA,NA,0,0,0,0,0,0,0,"0"
"83","Midlife","Few","Normal","Normal",0,"None",0,1,2,1,1,0,0,0,0,0,0,0,0,0,0,0,0,0,0,0,NA,NA,0,0,0,0,0,0,0,"0"
"84","Midlife","Normal","Normal","Normal",0,"None",0,1,8,0,0,0,0,0,0,0,0,0,0,0,0,0,0,0,0,0,NA,NA,0,0,0,0,0,0,0,"0"
"85","Midlife","Few","Early","Normal",0,"None",0,0,0,0,0,1,1,0,0,0,0,1,0,0,0,0,0,0,0,1,1,1,0,0,0,0,0,0,0,"0"
"86","Midlife","Few","Normal","Normal",0,"None",0,1,4,0,0,0,0,0,0,0,0,0,0,0,0,0,0,0,0,0,NA,NA,0,0,0,0,0,0,0,"0"
"87","Midlife","Few","Normal","Normal",0,"None",0,1,5,0,0,0,0,0,0,0,0,0,0,0,0,0,0,0,0,0,NA,NA,0,0,0,0,0,0,0,"0"
"88","Midlife","Normal","Normal","Normal",0,"None",0,1,10,0,0,0,0,0,0,0,0,0,0,0,0,0,0,0,0,0,NA,NA,0,0,0,0,0,0,0,"0"
"89","Midlife","Normal","Normal","Normal",0,"None",0,1,2,0,0,0,0,0,0,0,0,0,0,0,0,0,0,0,0,0,NA,NA,0,0,0,0,0,0,0,"0"
"90","Midlife","Few","Late","Normal",0,"None",0,0,0,0,0,0,0,0,0,0,0,0,0,0,0,0,0,0,0,0,NA,NA,0,0,0,0,0,0,0,"0"
"91","Midlife","Few","Early","Many",0,"None",0,NA,NA,NA,NA,NA,NA,NA,NA,NA,NA,NA,NA,NA,NA,NA,NA,NA,NA,0,NA,NA,0,0,0,0,0,0,0,"0"
"92","Midlife","Normal","Normal","Many",0,"None",0,1,4,1,11,0,0,0,0,0,0,0,0,0,0,0,0,0,0,0,NA,NA,0,0,0,0,0,0,0,"0"
"93","Midlife","Normal","Normal","Normal",0,"None",0,1,8,1,3,0,0,0,0,0,0,0,0,0,0,0,0,0,0,0,NA,NA,0,0,0,0,0,0,0,"0"
"94","Midlife","Few","Late","Normal",0,"None",0,1,0.5,0,0,0,0,0,0,0,0,0,0,0,0,0,0,0,0,0,NA,NA,0,0,0,0,0,1,1,"1"
"95","Midlife","Normal","Normal","Normal",0,"None",0,0,0,0,0,0,0,0,0,0,0,0,0,0,0,0,0,0,0,0,NA,NA,0,0,0,0,0,0,0,"0"
"96","Midlife","Normal","Normal","Normal",0,"None",0,NA,NA,NA,NA,NA,NA,NA,NA,NA,NA,NA,NA,NA,NA,NA,NA,NA,NA,0,NA,NA,0,0,0,0,0,0,0,"0"
"97","Midlife","Normal","Early",NA,1,"Normal",15,1,14,0,0,0,0,0,0,0,0,0,0,0,0,0,0,0,0,0,NA,NA,0,0,0,0,1,1,1,"1"
"98","Midlife","Few","Normal","Normal",0,"None",0,1,2,0,0,0,0,0,0,0,0,0,0,0,0,0,0,0,0,0,NA,NA,0,0,0,0,0,0,0,"0"
"99","Midlife","Few","Normal","Many",0,"None",0,NA,NA,NA,NA,NA,NA,NA,NA,NA,NA,NA,NA,NA,NA,NA,NA,NA,NA,0,NA,NA,0,0,0,0,0,0,0,"0"
"100","Midlife","Normal","Normal","Normal",0,"None",0,1,9,0,0,0,0,0,0,0,0,0,0,0,0,0,0,0,0,0,NA,NA,0,0,0,0,0,0,0,"0"
"101","Midlife","Normal","Early","Many",0,"None",0,1,0.1,0,0,0,0,0,0,0,0,0,0,0,0,0,0,0,0,0,NA,NA,0,0,0,0,0,0,0,"0"
"102","Midlife","Normal","Normal","Many",0,"None",0,0,0,1,7,1,1,0,0,0,0,0,0,0,0,0,1,0,0,1,11,11,0,0,0,0,0,0,1,"0"
"103","Midlife","Normal","Normal","Normal",0,"None",0,NA,NA,NA,NA,NA,NA,NA,NA,NA,NA,NA,NA,NA,NA,NA,NA,NA,NA,0,NA,NA,0,0,0,0,0,0,0,"0"
"104","Midlife","Normal","Normal","Many",0,"None",0,1,10,1,2,0,0,0,0,0,0,0,0,0,0,0,0,0,0,0,NA,NA,0,0,0,0,0,1,1,"1"
"105","Midlife","Few","Normal","Normal",0,"None",0,1,10,0,0,0,0,0,0,0,0,0,0,0,0,0,0,0,0,0,NA,NA,0,0,0,0,0,0,0,"0"
"106","Midlife","Normal","Normal","Many",1,"Normal",2,0,0,0,0,0,0,0,0,0,0,0,0,0,0,0,0,0,0,0,NA,NA,0,0,0,0,0,0,0,"0"
"107","Midlife","Normal","Normal","Normal",0,"None",0,1,13,0,0,0,0,0,0,0,0,0,0,0,0,0,0,0,0,0,NA,NA,0,0,0,0,0,0,0,"0"
"108","Midlife","Normal","Normal","Normal",1,"Few",0.5,1,2.3,0,0,0,0,0,0,0,0,0,0,0,0,0,0,0,0,0,NA,NA,0,0,0,0,0,0,0,"0"
"109","Midlife","Few","Early","Normal",0,"None",0,1,10,0,0,0,0,0,0,0,0,0,0,0,0,0,0,0,0,0,NA,NA,0,0,0,0,0,0,0,"0"
"110","Midlife","Few","Normal","Normal",0,"None",0,NA,NA,NA,NA,0,0,0,0,0,0,0,0,0,0,0,0,0,0,0,NA,NA,0,0,1,1,0,0,0,"0"
"111","Midlife","Normal","Normal","Normal",0,"None",0,1,8,0,0,0,0,0,0,0,0,0,0,0,0,0,0,0,0,0,NA,NA,0,0,0,0,0,0,0,"0"
"112","Midlife","Many","Early","Normal",1,"Many",5.7,NA,NA,NA,NA,NA,NA,NA,NA,NA,NA,NA,NA,NA,NA,NA,NA,NA,NA,0,NA,NA,0,0,0,0,0,0,0,"0"
"113","Midlife","Normal","Normal","Normal",0,"None",0,1,9,0,0,1,2,1,0,0,1,0,0,0,0,0,0,0,0,1,9,9,0,0,0,0,0,0,0,"0"
"114","Young","Normal","Late","Normal",0,"None",0,1,2,0,0,0,0,0,0,0,0,0,0,0,0,0,0,0,0,0,NA,NA,0,0,0,0,0,0,0,"0"
"115","Midlife","Normal","Early","Many",0,"None",0,1,0.7,0,0,0,0,0,0,0,0,0,0,0,0,0,0,0,0,0,NA,NA,0,0,0,0,0,0,0,"0"
"116","Midlife","Normal","Early","Normal",0,"None",0,0,0,1,15,0,0,0,0,0,0,0,0,0,0,0,0,0,0,0,NA,NA,0,0,0,0,0,0,0,"0"
"117","Midlife","Normal","Normal","Normal",0,"None",0,0,0,0,0,0,0,0,0,0,0,0,0,0,0,0,0,0,0,0,NA,NA,0,0,0,0,0,0,0,"0"
"118","Midlife","Normal","Normal","Normal",NA,NA,NA,NA,NA,NA,NA,NA,NA,NA,NA,NA,NA,NA,NA,NA,NA,NA,NA,NA,NA,0,NA,NA,0,0,0,0,0,0,0,"0"
"119","Midlife","Few","Normal","Normal",0,"None",0,1,11,0,0,0,0,0,0,0,0,0,0,0,0,0,0,0,0,0,NA,NA,0,0,0,0,0,0,0,"0"
"120","Midlife","Normal","Early","Normal",0,"None",0,1,3,0,0,0,0,0,0,0,0,0,0,0,0,0,0,0,0,0,NA,NA,0,0,0,0,0,0,0,"0"
"121","Midlife","Few","Normal","Many",0,"None",0,0,0,0,0,0,0,0,0,0,0,0,0,0,0,0,0,0,0,0,NA,NA,0,0,0,0,0,0,0,"0"
"122","Midlife","Normal","Early","Normal",0,"None",0,1,6,0,0,0,0,0,0,0,0,0,0,0,0,0,0,0,0,0,NA,NA,0,0,0,0,0,0,0,"0"
"123","Midlife","Normal","Early","Many",0,"None",0,1,4,0,0,0,0,0,0,0,0,0,0,0,0,0,0,0,0,0,NA,NA,0,0,0,0,0,0,0,"0"
"124","Midlife","Normal","Normal",NA,0,"None",0,1,2,NA,NA,1,2,1,0,0,1,0,0,0,0,0,0,0,0,1,1,1,0,0,0,0,0,0,0,"0"
"125","Midlife","Normal","Normal","Many",0,"None",0,1,12,0,0,0,0,0,0,0,0,0,0,0,0,0,0,0,0,0,NA,NA,0,0,0,0,0,0,0,"0"
"126","Midlife","Normal","Normal","Many",1,"Normal",1,0,0,0,0,0,0,0,0,0,0,0,0,0,0,0,0,0,0,0,NA,NA,0,0,0,0,0,0,0,"0"
"127","Midlife","Few","Normal","Normal",0,"None",0,0,0,0,0,0,0,0,0,0,0,0,0,0,0,0,0,0,0,0,NA,NA,0,0,0,0,0,0,0,"0"
"128","Midlife","Few","Early","Many",0,"None",0,0,0,1,6,0,0,0,0,0,0,0,0,0,0,0,0,0,0,0,NA,NA,0,0,0,0,0,0,0,"0"
"129","Midlife","Few","Late","Normal",0,"None",0,0,0,0,0,0,0,0,0,0,0,0,0,0,0,0,0,0,0,0,NA,NA,0,0,0,0,0,0,0,"0"
"130","Midlife","Few","Early","Many",0,"None",0,1,5,0,0,0,0,0,0,0,0,0,0,0,0,0,0,0,0,0,NA,NA,0,0,0,0,0,0,0,"0"
"131","Midlife","Few","Normal","Many",0,"None",0,1,5,0,0,0,0,0,0,0,0,0,0,0,0,0,0,0,0,0,NA,NA,0,0,0,0,0,0,0,"0"
"132","Midlife",NA,"Early","Normal",1,"Many",3.3,0,0,0,0,1,1,0,0,0,0,0,0,0,0,0,1,0,0,1,3,3,0,0,0,0,1,1,0,"1"
"133","Midlife","Few","Late","Normal",0,"None",0,1,0.1,0,0,0,0,0,0,0,0,0,0,0,0,0,0,0,0,0,NA,NA,0,0,0,0,0,0,0,"0"
"134","Midlife","Normal","Normal","Normal",1,"Normal",3.5,1,0.1,0,0,0,0,0,0,0,0,0,0,0,0,0,0,0,0,0,NA,NA,0,0,0,0,0,0,0,"0"
"135","Midlife","Normal","Early","Normal",0,"None",0,1,12,1,2,1,2,1,0,0,1,0,0,0,0,0,0,0,0,1,7,7,0,0,0,0,0,0,1,"0"
"136","Midlife","Normal","Early","Normal",0,"None",0,0,0,1,8,0,0,0,0,0,0,0,0,0,0,0,0,0,0,0,NA,NA,0,0,0,0,0,0,0,"0"
"137","Midlife","Few","Normal","Normal",0,"None",0,NA,NA,NA,NA,0,0,0,0,0,0,0,0,0,0,0,0,0,0,0,NA,NA,0,0,0,0,0,0,0,"0"
"138","Midlife","Normal","Normal","Normal",0,"None",0,1,1,0,0,0,0,0,0,0,0,0,0,0,0,0,0,0,0,0,NA,NA,0,0,0,0,0,0,0,"0"
"139","Midlife","Few","Late","Normal",0,"None",0,0,0,0,0,0,0,0,0,0,0,0,0,0,0,0,0,0,0,0,NA,NA,0,0,0,0,0,0,0,"0"
"140","Midlife","Few","Early","Normal",0,"None",0,1,0.5,1,12,0,0,0,0,0,0,0,0,0,0,0,0,0,0,0,NA,NA,0,0,0,0,0,0,0,"0"
"141","Midlife","Few","Late","Normal",0,"None",0,0,0,1,8,0,0,0,0,0,0,0,0,0,0,0,0,0,0,0,NA,NA,0,0,0,0,0,0,1,"0"
"142","Young","Normal","Normal","Normal",0,"None",0,NA,NA,NA,NA,NA,NA,NA,NA,NA,NA,NA,NA,NA,NA,NA,NA,NA,NA,0,NA,NA,0,0,0,0,0,0,0,"0"
"143","Midlife","Normal","Early","Normal",1,"Many",12,NA,NA,NA,NA,NA,NA,NA,NA,NA,NA,NA,NA,NA,NA,NA,NA,NA,NA,0,NA,NA,0,0,0,0,0,0,0,"0"
"144","Midlife","Few","Normal","Normal",0,"None",0,NA,NA,NA,NA,NA,NA,NA,NA,NA,NA,NA,NA,NA,NA,NA,NA,NA,NA,0,NA,NA,0,0,0,0,0,0,0,"0"
"145","Midlife","Few","Normal","Normal",0,"None",0,1,1,0,0,0,0,0,0,0,0,0,0,0,0,0,0,0,0,0,NA,NA,0,0,0,0,0,0,0,"0"
"146","Midlife","Normal","Early","Many",1,NA,0,1,6,0,0,0,0,0,0,0,0,0,0,0,0,0,0,0,0,0,NA,NA,0,0,0,0,0,0,0,"0"
"147","Midlife","Normal","Early","Normal",0,"None",0,1,0.5,1,9,0,0,0,0,0,0,0,0,0,0,0,0,0,0,0,NA,NA,0,0,0,0,0,0,0,"0"
"148","Midlife","Normal","Early","Many",0,"None",0,0,0,0,0,1,1,0,0,0,0,1,0,0,0,0,0,0,0,1,8,8,0,0,0,0,0,0,0,"0"
"149","Midlife","Normal","Normal","Many",0,"None",0,1,1,0,0,0,0,0,0,0,0,0,0,0,0,0,0,0,0,0,NA,NA,0,0,0,0,0,0,0,"0"
"150","Midlife","Normal","Early","Many",0,"None",0,NA,NA,NA,NA,NA,NA,NA,NA,NA,NA,NA,NA,NA,NA,NA,NA,NA,NA,0,NA,NA,0,0,0,0,0,0,0,"0"
"151","Midlife","Few","Normal","Normal",0,"None",0,1,3,0,0,0,0,0,0,0,0,0,0,0,0,0,0,0,0,0,NA,NA,0,0,0,0,0,0,0,"0"
"152","Midlife","Few","Normal","Normal",0,"None",0,0,0,0,0,0,0,0,0,0,0,0,0,0,0,0,0,0,0,0,NA,NA,0,0,0,0,0,0,0,"0"
"153","Young","Normal","Normal","Normal",0,"None",0,1,5,0,0,0,0,0,0,0,0,0,0,0,0,0,0,0,0,0,NA,NA,0,0,0,0,1,1,1,"0"
"154","Young","Few","Normal","Normal",0,"None",0,1,2,1,0.1,0,0,0,0,0,0,0,0,0,0,0,0,0,0,0,NA,NA,0,0,0,0,0,0,0,"0"
"155","Midlife","Few","Early","Normal",0,"None",0,1,6,0,0,0,0,0,0,0,0,0,0,0,0,0,0,0,0,0,NA,NA,0,0,0,0,0,0,0,"0"
"156","Midlife","Normal","Normal","Normal",1,"Normal",2.8,1,6,0,0,0,0,0,0,0,0,0,0,0,0,0,0,0,0,0,NA,NA,0,0,0,0,0,0,0,"0"
"157","Midlife","Few","Normal","Normal",0,"None",0,1,7,0,0,0,0,0,0,0,0,0,0,0,0,0,0,0,0,0,NA,NA,0,0,0,0,0,0,0,"0"
"158","Midlife",NA,"Normal","Normal",0,"None",0,1,5,0,0,0,0,0,0,0,0,0,0,0,0,0,0,0,0,0,NA,NA,0,0,0,0,0,0,0,"0"
"159","Midlife","Few","Late","Normal",0,"None",0,0,0,0,0,0,0,0,0,0,0,0,0,0,0,0,0,0,0,0,NA,NA,0,0,0,0,0,0,0,"0"
"160","Midlife","Few","Normal","Normal",0,"None",0,1,7,0,0,0,0,0,0,0,0,0,0,0,0,0,0,0,0,0,NA,NA,0,0,0,0,0,0,0,"0"
"161","Midlife","Few","Early","Normal",0,"None",0,1,5,1,1.5,0,0,0,0,0,0,0,0,0,0,0,0,0,0,0,NA,NA,0,0,0,0,0,0,0,"0"
"162","Midlife","Few","Normal","Normal",0,"None",0,1,6,0,0,0,0,0,0,0,0,0,0,0,0,0,0,0,0,0,NA,NA,0,0,0,0,0,0,0,"0"
"163","Midlife","Few","Late","Normal",0,"None",0,1,3,0,0,0,0,0,0,0,0,0,0,0,0,0,0,0,0,0,NA,NA,0,0,0,0,0,0,0,"0"
"164","Midlife","Normal","Early","Many",0,"None",0,1,3,0,0,0,0,0,0,0,0,0,0,0,0,0,0,0,0,0,NA,NA,0,0,0,0,0,0,0,"1"
"165","Midlife",NA,"Normal","Normal",0,"None",0,NA,NA,NA,NA,NA,NA,NA,NA,NA,NA,NA,NA,NA,NA,NA,NA,NA,NA,0,NA,NA,0,0,0,0,0,0,0,"0"
"166","Midlife","Normal","Normal","Normal",0,"None",0,1,5,1,5,1,1,0,0,0,0,0,0,0,0,0,1,0,0,1,3,3,0,0,0,0,0,0,0,"0"
"167","Midlife","Few","Normal","Normal",0,"None",0,1,7,0,0,0,0,0,0,0,0,0,0,0,0,0,0,0,0,0,NA,NA,0,0,0,0,0,0,0,"0"
"168","Midlife","Few","Normal",NA,0,"None",0,0,0,1,2,0,0,0,0,0,0,0,0,0,0,0,0,0,0,0,NA,NA,0,0,0,0,0,0,0,"0"
"169","Midlife","Normal","Normal","Normal",0,"None",0,0,0,1,3,0,0,0,0,0,0,0,0,0,0,0,0,0,0,0,NA,NA,0,0,0,0,0,0,0,"0"
"170","Young","Normal","Normal","Many",0,"None",0,1,5,0,0,0,0,0,0,0,0,0,0,0,0,0,0,0,0,0,NA,NA,0,0,0,0,0,0,0,"0"
"171","Young","Normal","Normal","Normal",0,"None",0,1,0.2,0,0,1,1,0,0,0,0,1,0,0,0,0,0,0,0,1,7,7,0,0,0,0,0,0,0,"0"
"172","Young","Few","Normal","Normal",1,"Few",0.5,1,4,0,0,0,0,0,0,0,0,0,0,0,0,0,0,0,0,0,NA,NA,0,0,0,0,0,0,0,"0"
"173","Midlife","Few","Normal","Normal",0,"None",0,1,9,0,0,0,0,0,0,0,0,0,0,0,0,0,0,0,0,0,NA,NA,0,0,0,0,0,0,0,"0"
"174","Midlife","Normal","Early","Normal",0,"None",0,0,0,0,0,1,1,0,0,0,0,0,0,0,0,0,1,0,0,1,16,16,0,0,0,0,0,0,0,"0"
"175","Midlife","Normal","Early","Many",1,"Normal",12,0,0,0,0,0,0,0,0,0,0,0,0,0,0,0,0,0,0,0,NA,NA,0,0,0,0,0,0,0,"0"
"176","Young","Few","Normal","Normal",0,"None",0,1,1,0,0,0,0,0,0,0,0,0,0,0,0,0,0,0,0,0,NA,NA,0,0,0,0,0,0,0,"0"
"177","Midlife","Few","Normal","Normal",0,"None",0,NA,NA,NA,NA,NA,NA,NA,NA,NA,NA,NA,NA,NA,NA,NA,NA,NA,NA,0,NA,NA,0,0,0,0,0,0,0,"0"
"178","Midlife","Normal","Normal","Normal",0,"None",0,1,1,0,0,0,0,0,0,0,0,0,0,0,0,0,0,0,0,0,NA,NA,0,0,0,0,0,0,0,"0"
"179","Midlife","Normal","Normal","Many",0,"None",0,NA,NA,NA,NA,NA,NA,NA,NA,NA,NA,NA,NA,NA,NA,NA,NA,NA,NA,0,NA,NA,0,0,0,0,0,0,0,"0"
"180","Midlife","Few","Normal","Normal",0,"None",0,1,9,0,0,0,0,0,0,0,0,0,0,0,0,0,0,0,0,0,NA,NA,0,0,0,0,0,0,0,"0"
"181","Young","Few","Early","Normal",0,"None",0,1,1,1,8,0,0,0,0,0,0,0,0,0,0,0,0,0,0,0,NA,NA,0,0,0,0,0,0,0,"0"
"182","Midlife","Few","Normal","Normal",0,"None",0,0,0,0,0,0,0,0,0,0,0,0,0,0,0,0,0,0,0,0,NA,NA,0,0,0,0,0,0,0,"0"
"183","Young","Normal",NA,"Many",0,"None",0,1,0.2,0,0,0,0,0,0,0,0,0,0,0,0,0,0,0,0,0,NA,NA,0,0,0,0,0,0,0,"0"
"184","Midlife","Few","Normal","Normal",0,"None",0,0,0,0,0,0,0,0,0,0,0,0,0,0,0,0,0,0,0,0,NA,NA,0,0,0,0,0,0,0,"0"
"185","Young","Few","Normal","Normal",0,"None",0,1,0.2,1,2,0,0,0,0,0,0,0,0,0,0,0,0,0,0,0,NA,NA,0,0,0,0,0,0,0,"0"
"186","Midlife","Few","Normal",NA,0,"None",0,1,9,0,0,0,0,0,0,0,0,0,0,0,0,0,0,0,0,0,NA,NA,0,0,0,0,1,1,0,"1"
"187","Young","Many","Normal","Normal",NA,NA,NA,0,0,0,0,1,2,1,0,0,1,0,0,0,0,0,0,0,0,1,6,6,0,0,0,0,0,0,0,"0"
"188","Midlife","Normal","Normal","Normal",1,"Normal",6,1,7,0,0,1,1,0,0,0,0,0,0,0,0,0,1,0,0,1,2,2,0,0,0,0,0,0,0,"0"
"189","Midlife","Normal","Normal","Normal",0,"None",0,1,3,0,0,0,0,0,0,0,0,0,0,0,0,0,0,0,0,0,NA,NA,1,0,1,1,0,0,1,"0"
"190","Young","Few","Normal","Normal",0,"None",0,1,5,NA,NA,NA,NA,NA,NA,NA,NA,NA,NA,NA,NA,NA,NA,NA,NA,0,NA,NA,0,0,0,0,0,0,0,"0"
"191","Midlife","Many","Normal","Normal",0,"None",0,1,1,0,0,0,0,0,0,0,0,0,0,0,0,0,0,0,0,0,NA,NA,0,0,0,0,0,0,0,"0"
"192","Midlife","Normal","Early","Normal",0,"None",0,1,2,1,0.9,0,0,0,0,0,0,0,0,0,0,0,0,0,0,0,NA,NA,0,0,0,0,1,1,0,"0"
"193","Midlife","Few","Normal","Many",0,"None",0,1,2,0,0,0,0,0,0,0,0,0,0,0,0,0,0,0,0,0,NA,NA,0,0,0,0,0,0,0,"0"
"194","Young","Many","Normal","Normal",1,"Normal",0.5,NA,NA,NA,NA,NA,NA,NA,NA,NA,NA,NA,NA,NA,NA,NA,NA,NA,NA,0,NA,NA,0,0,0,0,0,0,0,"0"
"195","Young","Normal","Normal","Normal",0,"None",0,1,1.5,0,0,0,0,0,0,0,0,0,0,0,0,0,0,0,0,0,NA,NA,0,0,0,0,0,0,0,"0"
"196","Young","Few","Normal","Normal",0,"None",0,1,6,0,0,0,0,0,0,0,0,0,0,0,0,0,0,0,0,0,NA,NA,0,0,0,0,0,0,0,"0"
"197","Midlife","Normal","Normal","Normal",0,"None",0,0,0,0,0,0,0,0,0,0,0,0,0,0,0,0,0,0,0,0,NA,NA,0,0,0,0,0,0,0,"0"
"198","Young","Normal","Normal",NA,0,"None",0,1,1,NA,NA,0,0,0,0,0,0,0,0,0,0,0,0,0,0,0,NA,NA,0,1,0,1,0,0,0,"0"
"199","Midlife","Few","Normal","Normal",0,"None",0,0,0,0,0,0,0,0,0,0,0,0,0,0,0,0,0,0,0,0,NA,NA,0,0,0,0,0,0,0,"0"
"200","Midlife","Few","Normal","Normal",0,"None",0,0,0,0,0,0,0,0,0,0,0,0,0,0,0,0,0,0,0,0,NA,NA,0,0,0,0,0,0,0,"0"
"201","Young","Many","Normal","Normal",0,"None",0,0,0,0,0,0,0,0,0,0,0,0,0,0,0,0,0,0,0,0,NA,NA,0,0,0,0,0,0,0,"0"
"202","Young","Normal","Normal","Many",1,"Few",0.2,0,0,0,0,0,0,0,0,0,0,0,0,0,0,0,0,0,0,0,NA,NA,0,0,0,0,0,0,0,"0"
"203","Midlife","Few","Early","Normal",1,"Normal",1.4,1,3,0,0,1,3,1,0,0,1,1,0,0,0,0,0,0,0,1,5,5,0,0,0,0,0,0,0,"0"
"204","Midlife","Few","Normal","Normal",0,"None",0,1,0.4,1,3,1,2,1,0,0,1,0,0,0,0,0,0,0,0,1,7,7,0,0,0,0,1,1,0,"1"
"205","Young","Few","Normal","Normal",0,"None",0,0,0,0,0,0,0,0,0,0,0,0,0,0,0,0,0,0,0,0,NA,NA,0,0,0,0,0,0,0,"0"
"206","Young","Normal","Normal","Normal",0,"None",0,1,0.1,0,0,0,0,0,0,0,0,0,0,0,0,0,0,0,0,0,NA,NA,0,0,0,0,1,1,1,"1"
"207","Midlife","Few","Normal","Normal",0,"None",0,1,1,0,0,0,0,0,0,0,0,0,0,0,0,0,0,0,0,0,NA,NA,0,0,0,0,0,0,0,"0"
"208","Young","Normal","Normal","Normal",0,"None",0,1,1,0,0,0,0,0,0,0,0,0,0,0,0,0,0,0,0,0,NA,NA,0,0,0,0,0,0,0,"0"
"209","Midlife","Normal","Normal","Normal",0,"None",0,1,0.7,0,0,0,0,0,0,0,0,0,0,0,0,0,0,0,0,0,NA,NA,0,0,0,0,0,0,0,"0"
"210","Young","Normal","Early","Normal",0,"None",0,1,9,0,0,0,0,0,0,0,0,0,0,0,0,0,0,0,0,0,NA,NA,0,0,0,0,0,0,0,"0"
"211","Young","Normal","Early","Many",0,"None",0,1,3,1,2,0,0,0,0,0,0,0,0,0,0,0,0,0,0,0,NA,NA,0,0,0,0,0,0,0,"0"
"212","Midlife","Few","Late","Normal",0,"None",0,0,0,0,0,0,0,0,0,0,0,0,0,0,0,0,0,0,0,0,NA,NA,0,0,0,0,0,0,0,"0"
"213","Young","Normal","Early","Normal",1,"Normal",5,NA,NA,NA,NA,1,1,0,0,0,0,0,0,0,0,0,1,0,0,1,6,6,0,0,0,0,0,0,0,"0"
"214","Midlife","Normal","Early","Many",1,"Normal",2.1,1,7,1,4,1,2,1,0,0,1,0,0,0,0,0,0,0,0,1,10,10,0,0,0,0,0,0,0,"0"
"215","Midlife","Few","Normal","Normal",0,"None",0,1,4,0,0,0,0,0,0,0,0,0,0,0,0,0,0,0,0,0,NA,NA,0,0,0,0,1,1,0,"1"
"216","Young","Few","Late","Normal",0,"None",0,1,0.1,0,0,0,0,0,0,0,0,0,0,0,0,0,0,0,0,0,NA,NA,0,0,0,0,0,0,0,"0"
"217","Midlife","Normal","Normal","Normal",1,"Normal",2,1,6,0,0,0,0,0,0,0,0,0,0,0,0,0,0,0,0,0,NA,NA,0,0,0,0,1,1,0,"1"
"218","Young","Few","Normal","Normal",0,"None",0,1,4,0,0,0,0,0,0,0,0,0,0,0,0,0,0,0,0,0,NA,NA,0,0,0,0,0,0,0,"0"
"219","Midlife","Normal","Normal","Many",0,"None",0,1,1,0,0,0,0,0,0,0,0,0,0,0,0,0,0,0,0,0,NA,NA,0,0,0,0,0,0,0,"0"
"220","Young","Normal","Normal","Normal",1,"Few",0.5,1,2,0,0,0,0,0,0,0,0,0,0,0,0,0,0,0,0,0,NA,NA,0,0,0,0,0,0,0,"0"
"221","Young",NA,"Normal","Normal",0,"None",0,NA,NA,NA,NA,NA,NA,NA,NA,NA,NA,NA,NA,NA,NA,NA,NA,NA,NA,0,NA,NA,0,0,0,0,0,0,0,"0"
"222","Young",NA,NA,"Normal",0,"None",0,1,3,0,0,0,0,0,0,0,0,0,0,0,0,0,0,0,0,0,NA,NA,0,0,0,0,0,0,0,"0"
"223","Midlife","Few","Normal","Normal",0,"None",0,NA,NA,NA,NA,1,1,0,0,0,0,1,0,0,0,0,0,0,0,1,8,8,0,0,0,0,0,0,0,"0"
"224","Young","Few","Early","Normal",0,"None",0,1,0.2,0,0,0,0,0,0,0,0,0,0,0,0,0,0,0,0,0,NA,NA,0,0,0,0,0,0,0,"0"
"225","Young","Few","Normal","Many",0,"None",0,0,0,0,0,1,1,0,0,0,0,0,0,0,0,0,1,0,0,1,4,4,0,0,0,0,1,1,0,"1"
"226","Midlife","Many","Early","Normal",0,"None",0,NA,NA,NA,NA,NA,NA,NA,NA,NA,NA,NA,NA,NA,NA,NA,NA,NA,NA,0,NA,NA,0,0,0,0,0,0,0,"0"
"227","Young","Few","Normal","Normal",0,"None",0,0,0,0,0,0,0,0,0,0,0,0,0,0,0,0,0,0,0,0,NA,NA,0,0,0,0,0,0,0,"0"
"228","Young","Normal","Early","Normal",1,"Normal",0.7,0,0,0,0,1,2,1,0,0,1,0,0,0,0,0,0,0,0,1,5,5,0,0,0,0,0,1,0,"0"
"229","Midlife","Few","Normal","Normal",0,"None",0,NA,NA,NA,NA,NA,NA,NA,NA,NA,NA,NA,NA,NA,NA,NA,NA,NA,NA,0,NA,NA,0,0,0,0,0,0,0,"0"
"230","Midlife","Normal","Early","Many",0,"None",0,1,6,0,0,0,0,0,0,0,0,0,0,0,0,0,0,0,0,0,NA,NA,0,1,0,1,0,0,0,"0"
"231","Young","Few","Normal","Normal",0,"None",0,1,1,0,0,0,0,0,0,0,0,0,0,0,0,0,0,0,0,0,NA,NA,0,0,0,0,0,0,0,"0"
"232","Young","Normal","Early","Many",0,"None",0,0,0,1,6,0,0,0,0,0,0,0,0,0,0,0,0,0,0,0,NA,NA,0,0,0,0,0,0,0,"0"
"233","Young","Normal","Normal","Normal",0,"None",0,1,1,0,0,0,0,0,0,0,0,0,0,0,0,0,0,0,0,0,NA,NA,0,0,0,0,0,0,0,"0"
"234","Young","Few","Normal","Normal",0,"None",0,1,0.2,0,0,0,0,0,0,0,0,0,0,0,0,0,0,0,0,0,NA,NA,0,0,0,0,0,0,0,"0"
"235","Young",NA,"Normal","Normal",0,"None",0,NA,NA,NA,NA,NA,NA,NA,NA,NA,NA,NA,NA,NA,NA,NA,NA,NA,NA,0,NA,NA,0,0,0,0,0,0,0,"0"
"236","Young","Few","Normal","Normal",0,"None",0,1,0.5,0,0,0,0,0,0,0,0,0,0,0,0,0,0,0,0,0,NA,NA,0,0,0,0,0,0,0,"0"
"237","Young","Few","Early","Normal",0,"None",0,1,4,0,0,1,1,0,0,0,0,0,0,0,0,0,1,0,0,1,2,2,0,0,0,0,0,0,0,"0"
"238","Young","Few","Normal","Normal",0,"None",0,NA,NA,NA,NA,1,1,0,0,0,0,0,0,0,0,0,1,0,0,1,4,4,0,0,0,0,0,0,0,"0"
"239","Midlife","Normal","Normal","Many",0,"None",0,1,6,0,0,0,0,0,0,0,0,0,0,0,0,0,0,0,0,0,NA,NA,0,0,0,0,0,0,0,"0"
"240","Midlife","Normal","Early","Normal",1,"Normal",0.8,1,8,0,0,0,0,0,0,0,0,0,0,0,0,0,0,0,0,0,NA,NA,0,0,0,0,0,0,0,"0"
"241","Young","Few","Normal","Normal",0,"None",0,1,3,0,0,0,0,0,0,0,0,0,0,0,0,0,0,0,0,0,NA,NA,0,0,0,0,0,0,0,"0"
"242","Young","Few","Normal","Normal",0,"None",0,1,6,0,0,0,0,0,0,0,0,0,0,0,0,0,0,0,0,0,NA,NA,0,0,0,0,0,0,0,"0"
"243","Midlife","Few","Late","Normal",0,"None",0,1,0.1,0,0,0,0,0,0,0,0,0,0,0,0,0,0,0,0,0,NA,NA,0,0,0,0,0,0,0,"0"
"244","Young","Many","Normal","Normal",0,"None",0,NA,NA,NA,NA,NA,NA,NA,NA,NA,NA,NA,NA,NA,NA,NA,NA,NA,NA,0,NA,NA,0,0,0,0,0,0,0,"0"
"245","Young","Normal","Normal","Normal",0,"None",0,0,0,0,0,0,0,0,0,0,0,0,0,0,0,0,0,0,0,0,NA,NA,0,0,0,0,0,0,0,"0"
"246","Young","Few","Normal","Normal",0,"None",0,1,1,0,0,0,0,0,0,0,0,0,0,0,0,0,0,0,0,0,NA,NA,0,0,0,0,0,0,0,"0"
"247","Midlife","Few","Normal","Normal",0,"None",0,1,7,0,0,0,0,0,0,0,0,0,0,0,0,0,0,0,0,0,NA,NA,0,0,0,0,0,0,0,"0"
"248","Young","Few","Normal","Normal",0,"None",0,1,0.7,0,0,0,0,0,0,0,0,0,0,0,0,0,0,0,0,0,NA,NA,0,0,0,0,0,0,0,"0"
"249","Young","Few","Normal","Normal",0,"None",0,1,7,0,0,0,0,0,0,0,0,0,0,0,0,0,0,0,0,0,NA,NA,0,0,0,0,0,0,0,"0"
"250","Young","Normal","Early","Normal",0,"None",0,1,0.2,0,0,0,0,0,0,0,0,0,0,0,0,0,0,0,0,0,NA,NA,0,0,0,0,0,0,0,"0"
"251","Young","Few","Normal","Normal",0,"None",0,1,0.2,0,0,0,0,0,0,0,0,0,0,0,0,0,0,0,0,0,NA,NA,0,0,0,0,0,0,0,"0"
"252","Young","Few","Normal","Normal",0,"None",0,1,0.5,0,0,0,0,0,0,0,0,0,0,0,0,0,0,0,0,0,NA,NA,0,0,0,0,1,1,0,"0"
"253","Young","Few","Normal","Normal",1,"Normal",1.2,1,8,0,0,0,0,0,0,0,0,0,0,0,0,0,0,0,0,0,NA,NA,0,0,0,0,0,0,0,"0"
"254","Young","Few","Early","Normal",0,"None",0,0,0,0,0,0,0,0,0,0,0,0,0,0,0,0,0,0,0,0,NA,NA,0,0,0,0,0,0,0,"0"
"255","Young","Normal","Normal","Normal",0,"None",0,0,0,0,0,0,0,0,0,0,0,0,0,0,0,0,0,0,0,0,NA,NA,0,0,0,0,0,0,0,"0"
"256","Young","Few","Normal","Normal",0,"None",0,1,0.2,0,0,0,0,0,0,0,0,0,0,0,0,0,0,0,0,0,NA,NA,0,0,0,0,0,0,0,"0"
"257","Young","Normal","Normal","Normal",0,"None",0,NA,NA,NA,NA,NA,NA,NA,NA,NA,NA,NA,NA,NA,NA,NA,NA,NA,NA,0,NA,NA,0,0,0,0,0,0,0,"0"
"258","Young","Normal","Normal","Normal",0,"None",0,0,0,0,0,1,2,1,0,0,1,0,0,0,0,0,0,0,0,0,NA,NA,0,0,0,0,1,1,0,"1"
"259","Young","Normal","Normal","Normal",0,"None",0,1,0.4,0,0,0,0,0,0,0,0,0,0,0,0,0,0,0,0,0,NA,NA,0,0,0,0,0,0,0,"0"
"260","Young","Many","Early","Normal",1,"Normal",7.5,1,8,0,0,0,0,0,0,0,0,0,0,0,0,0,0,0,0,0,NA,NA,0,0,0,0,0,0,0,"0"
"261","Midlife","Few","Early","Many",0,"None",0,1,5,0,0,0,0,0,0,0,0,0,0,0,0,0,0,0,0,0,NA,NA,0,0,0,0,0,0,0,"0"
"262","Young","Few","Normal","Normal",0,"None",0,0,0,0,0,0,0,0,0,0,0,0,0,0,0,0,0,0,0,0,NA,NA,0,0,0,0,0,0,0,"0"
"263","Young","Few","Early","Normal",0,"None",0,0,0,1,7,0,0,0,0,0,0,0,0,0,0,0,0,0,0,0,NA,NA,0,0,0,0,0,0,0,"0"
"264","Young","Few","Early","Many",1,"Few",0.5,NA,NA,NA,NA,NA,NA,NA,NA,NA,NA,NA,NA,NA,NA,NA,NA,NA,NA,0,NA,NA,0,0,0,0,0,0,0,"0"
"265","Young","Few","Early","Normal",1,"Normal",1.2,1,6,0,0,0,0,0,0,0,0,0,0,0,0,0,0,0,0,0,NA,NA,0,0,0,0,0,1,0,"1"
"266","Young",NA,"Normal",NA,0,"None",0,0,0,0,0,0,0,0,0,0,0,0,0,0,0,0,0,0,0,0,NA,NA,0,0,0,0,0,0,0,"0"
"267","Young","Few","Normal","Normal",0,"None",0,1,1,0,0,0,0,0,0,0,0,0,0,0,0,0,0,0,0,0,NA,NA,0,0,0,0,0,0,0,"0"
"268","Young","Few","Normal","Normal",0,"None",0,NA,NA,NA,NA,NA,NA,NA,NA,NA,NA,NA,NA,NA,NA,NA,NA,NA,NA,0,NA,NA,0,0,0,0,0,0,0,"0"
"269","Young","Few","Normal","Normal",0,"None",0,1,3,0,0,0,0,0,0,0,0,0,0,0,0,0,0,0,0,0,NA,NA,0,0,0,0,0,0,0,"0"
"270","Young","Few","Normal","Normal",0,"None",0,0,0,0,0,0,0,0,0,0,0,0,0,0,0,0,0,0,0,0,NA,NA,0,0,0,0,0,0,0,"0"
"271","Young","Few","Normal","Normal",0,"None",0,1,1,0,0,0,0,0,0,0,0,0,0,0,0,0,0,0,0,0,NA,NA,0,0,0,0,0,0,0,"0"
"272","Young","Normal","Normal","Normal",0,"None",0,NA,NA,NA,NA,NA,NA,NA,NA,NA,NA,NA,NA,NA,NA,NA,NA,NA,NA,0,NA,NA,0,0,0,0,0,0,0,"0"
"273","Young",NA,"Normal",NA,0,"None",0,NA,NA,NA,NA,NA,NA,NA,NA,NA,NA,NA,NA,NA,NA,NA,NA,NA,NA,0,NA,NA,0,0,0,0,0,0,0,"0"
"274","Young","Normal","Early","Normal",0,"None",0,0,0,1,4,0,0,0,0,0,0,0,0,0,0,0,0,0,0,0,NA,NA,0,0,0,0,0,0,0,"0"
"275","Young","Few","Normal","Normal",0,"None",0,1,5,0,0,0,0,0,0,0,0,0,0,0,0,0,0,0,0,0,NA,NA,0,0,0,0,0,0,0,"0"
"276","Young","Normal","Normal","Normal",0,"None",0,0,0,0,0,0,0,0,0,0,0,0,0,0,0,0,0,0,0,0,NA,NA,0,0,0,0,0,1,0,"0"
"277","Young","Normal","Normal","Normal",0,"None",0,1,3,0,0,0,0,0,0,0,0,0,0,0,0,0,0,0,0,0,NA,NA,0,0,0,0,0,0,0,"0"
"278","Young","Few","Normal","Normal",0,"None",0,0,0,0,0,0,0,0,0,0,0,0,0,0,0,0,0,0,0,0,NA,NA,0,0,0,0,0,0,0,"0"
"279","Young","Few","Normal","Normal",0,"None",0,0,0,0,0,0,0,0,0,0,0,0,0,0,0,0,0,0,0,0,NA,NA,0,0,0,0,0,0,0,"0"
"280","Young","Few","Normal","Normal",NA,NA,NA,NA,NA,NA,NA,NA,NA,NA,NA,NA,NA,NA,NA,NA,NA,NA,NA,NA,NA,0,NA,NA,0,0,0,0,0,0,0,"0"
"281","Young","Few","Normal","Normal",0,"None",0,0,0,0,0,0,0,0,0,0,0,0,0,0,0,0,0,0,0,0,NA,NA,0,0,0,0,0,0,0,"0"
"282","Young","Normal","Early","Normal",0,"None",0,NA,NA,NA,NA,NA,NA,NA,NA,NA,NA,NA,NA,NA,NA,NA,NA,NA,NA,0,NA,NA,0,0,0,0,0,0,0,"0"
"283","Young","Few","Normal","Normal",0,"None",0,1,4,0,0,0,0,0,0,0,0,0,0,0,0,0,0,0,0,0,NA,NA,0,0,0,0,0,0,0,"0"
"284","Young","Normal","Normal","Normal",0,"None",0,1,3,0,0,0,0,0,0,0,0,0,0,0,0,0,0,0,0,0,NA,NA,0,0,0,0,0,0,0,"0"
"285","Young","Few","Normal","Normal",0,"None",0,NA,NA,NA,NA,NA,NA,NA,NA,NA,NA,NA,NA,NA,NA,NA,NA,NA,NA,0,NA,NA,0,0,0,0,0,0,0,"0"
"286","Young","Few","Late","Normal",0,"None",0,1,2,0,0,0,0,0,0,0,0,0,0,0,0,0,0,0,0,0,NA,NA,0,0,0,0,0,0,0,"0"
"287","Young","Normal","Early","Normal",0,"None",0,0,0,0,0,0,0,0,0,0,0,0,0,0,0,0,0,0,0,0,NA,NA,0,0,0,0,0,0,0,"0"
"288","Young","Normal","Normal","Normal",0,"None",0,1,1,0,0,0,0,0,0,0,0,0,0,0,0,0,0,0,0,0,NA,NA,0,0,0,0,0,0,0,"0"
"289","Young","Few","Early","Normal",1,"Few",0.5,1,5,0,0,0,0,0,0,0,0,0,0,0,0,0,0,0,0,0,NA,NA,0,0,0,0,0,0,0,"0"
"290","Young","Few","Normal","Normal",1,"Few",3,1,2,0,0,0,0,0,0,0,0,0,0,0,0,0,0,0,0,0,NA,NA,0,0,0,0,0,0,0,"0"
"291","Young","Few","Early","Normal",1,"Normal",0.8,1,4,0,0,0,0,0,0,0,0,0,0,0,0,0,0,0,0,0,NA,NA,0,0,0,0,0,0,0,"0"
"292","Young","Few","Normal","Normal",0,"None",0,1,1,0,0,0,0,0,0,0,0,0,0,0,0,0,0,0,0,0,NA,NA,0,0,0,0,0,0,0,"0"
"293","Young","Few","Normal","Normal",0,"None",0,1,0.1,0,0,0,0,0,0,0,0,0,0,0,0,0,0,0,0,0,NA,NA,0,0,0,0,0,0,0,"0"
"294","Young","Few","Normal","Normal",0,"None",0,0,0,0,0,0,0,0,0,0,0,0,0,0,0,0,0,0,0,0,NA,NA,0,0,0,0,0,0,0,"0"
"295","Young","Few","Normal","Normal",0,"None",0,0,0,0,0,0,0,0,0,0,0,0,0,0,0,0,0,0,0,0,NA,NA,0,0,0,0,0,0,0,"0"
"296","Young","Few","Normal","Normal",0,"None",0,1,7,0,0,1,2,1,0,0,1,0,0,0,0,0,0,0,0,1,3,3,0,0,0,0,0,0,0,"0"
"297","Young","Normal","Normal","Normal",0,"None",0,0,0,0,0,0,0,0,0,0,0,0,0,0,0,0,0,0,0,0,NA,NA,0,0,0,0,0,0,0,"0"
"298","Young","Few","Normal","Normal",NA,NA,NA,0,0,0,0,0,0,0,0,0,0,0,0,0,0,0,0,0,0,0,NA,NA,0,0,0,0,0,0,0,"0"
"299","Young","Few","Normal","Normal",0,"None",0,1,0.2,0,0,0,0,0,0,0,0,0,0,0,0,0,0,0,0,0,NA,NA,0,0,0,0,0,0,0,"0"
"300","Young","Normal","Normal","Normal",0,"None",0,NA,NA,NA,NA,NA,NA,NA,NA,NA,NA,NA,NA,NA,NA,NA,NA,NA,NA,0,NA,NA,0,0,0,0,0,0,0,"0"
"301","Young","Few","Early","Normal",0,"None",0,1,5,0,0,0,0,0,0,0,0,0,0,0,0,0,0,0,0,0,NA,NA,0,0,0,0,0,0,0,"0"
"302","Young",NA,"Normal","Normal",0,"None",0,0,0,0,0,0,0,0,0,0,0,0,0,0,0,0,0,0,0,0,NA,NA,0,0,0,0,0,0,0,"0"
"303","Young","Normal","Normal","Normal",1,"Few",0.1,1,7,0,0,0,0,0,0,0,0,0,0,0,0,0,0,0,0,0,NA,NA,0,0,0,0,0,0,0,"0"
"304","Young","Normal","Early","Normal",0,"None",0,0,0,0,0,0,0,0,0,0,0,0,0,0,0,0,0,0,0,0,NA,NA,0,0,0,0,0,0,0,"0"
"305","Young",NA,"Normal","Normal",0,"None",0,NA,NA,NA,NA,NA,NA,NA,NA,NA,NA,NA,NA,NA,NA,NA,NA,NA,NA,0,NA,NA,0,0,0,0,0,0,0,"0"
"306","Young","Normal","Normal","Normal",1,NA,0.5,0,0,0,0,0,0,0,0,0,0,0,0,0,0,0,0,0,0,0,NA,NA,0,0,0,0,0,0,0,"0"
"307","Young","Normal","Normal","Normal",0,"None",0,1,0.7,0,0,0,0,0,0,0,0,0,0,0,0,0,0,0,0,0,NA,NA,0,0,0,0,0,0,0,"0"
"308","Young","Few","Normal","Normal",0,"None",0,NA,NA,NA,NA,NA,NA,NA,NA,NA,NA,NA,NA,NA,NA,NA,NA,NA,NA,0,NA,NA,0,0,0,0,0,0,0,"0"
"309","Young","Few","Normal","Normal",0,"None",0,1,5,0,0,0,0,0,0,0,0,0,0,0,0,0,0,0,0,0,NA,NA,0,0,0,0,0,0,0,"0"
"310","Young","Normal","Normal","Normal",0,"None",0,NA,NA,0,0,1,2,1,0,0,1,0,0,0,0,0,0,0,0,1,2,2,0,0,0,0,0,0,0,"0"
"311","Young","Few","Normal","Normal",0,"None",0,1,0.6,0,0,0,0,0,0,0,0,0,0,0,0,0,0,0,0,0,NA,NA,0,0,0,0,0,0,0,"0"
"312","Young","Normal","Normal","Many",0,"None",0,1,4,0,0,0,0,0,0,0,0,0,0,0,0,0,0,0,0,0,NA,NA,0,0,0,0,0,0,0,"0"
"313","Young","Few","Late","Normal",0,"None",0,0,0,NA,NA,0,0,0,0,0,0,0,0,0,0,0,0,0,0,0,NA,NA,0,0,0,0,0,0,0,"0"
"314","Young","Normal","Early","Normal",0,"None",0,1,1,0,0,0,0,0,0,0,0,0,0,0,0,0,0,0,0,0,NA,NA,0,0,0,0,0,0,0,"0"
"315","Young","Few","Normal","Normal",0,"None",0,1,3,0,0,0,0,0,0,0,0,0,0,0,0,0,0,0,0,0,NA,NA,0,0,0,0,1,1,0,"1"
"316","Young","Normal","Normal","Normal",0,"None",0,1,4,0,0,0,0,0,0,0,0,0,0,0,0,0,0,0,0,0,NA,NA,0,0,0,0,0,0,0,"0"
"317","Young","Few","Normal","Normal",0,"None",0,NA,NA,NA,NA,NA,NA,NA,NA,NA,NA,NA,NA,NA,NA,NA,NA,NA,NA,0,NA,NA,0,0,0,0,0,0,0,"0"
"318","Young","Few","Normal","Normal",0,"None",0,1,0.2,0,0,0,0,0,0,0,0,0,0,0,0,0,0,0,0,0,NA,NA,0,0,0,0,0,0,0,"0"
"319","Young","Few","Normal","Normal",0,"None",0,1,6,0,0,0,0,0,0,0,0,0,0,0,0,0,0,0,0,0,NA,NA,0,0,0,0,0,0,0,"0"
"320","Young","Few","Normal","Normal",0,"None",0,NA,NA,NA,NA,NA,NA,NA,NA,NA,NA,NA,NA,NA,NA,NA,NA,NA,NA,0,NA,NA,0,0,0,0,0,0,0,"0"
"321","Young","Normal","Early","Normal",0,"None",0,1,1,0,0,0,0,0,0,0,0,0,0,0,0,0,0,0,0,0,NA,NA,0,0,0,0,1,1,1,"1"
"322","Young","Few","Normal","Normal",0,"None",0,NA,NA,NA,NA,NA,NA,NA,NA,NA,NA,NA,NA,NA,NA,NA,NA,NA,NA,0,NA,NA,0,0,0,0,0,0,0,"0"
"323","Young","Few","Normal","Normal",0,"None",0,1,1,0,0,0,0,0,0,0,0,0,0,0,0,0,0,0,0,0,NA,NA,0,0,0,0,0,0,0,"0"
"324","Young","Few","Normal","Normal",0,"None",0,1,3,0,0,NA,NA,NA,NA,NA,NA,NA,NA,NA,NA,NA,NA,NA,NA,0,NA,NA,0,0,0,0,0,0,0,"0"
"325","Midlife",NA,"Normal","Many",0,"None",0,1,3,0,0,0,0,0,0,0,0,0,0,0,0,0,0,0,0,0,NA,NA,0,0,0,0,0,0,0,"0"
"326","Young","Few","Normal","Normal",0,"None",0,1,0.2,0,0,1,1,0,0,0,0,0,0,1,0,0,0,0,0,1,1,1,0,0,0,0,0,0,0,"1"
"327","Young","Few","Normal","Normal",0,"None",0,1,0.2,0,0,0,0,0,0,0,0,0,0,0,0,0,0,0,0,0,NA,NA,0,0,0,0,0,0,0,"0"
"328","Young","Few","Early","Normal",0,"None",0,0,0,0,0,0,0,0,0,0,0,0,0,0,0,0,0,0,0,0,NA,NA,0,0,0,0,0,0,0,"0"
"329","Young","Normal","Early","Normal",0,"None",0,NA,NA,NA,NA,NA,NA,NA,NA,NA,NA,NA,NA,NA,NA,NA,NA,NA,NA,0,NA,NA,0,0,0,0,0,0,0,"0"
"330","Young","Few","Normal","Many",0,"None",0,1,0.2,0,0,0,0,0,0,0,0,0,0,0,0,0,0,0,0,0,NA,NA,0,0,0,0,0,0,0,"0"
"331","Young","Few","Early","Normal",0,"None",0,NA,NA,NA,NA,NA,NA,NA,NA,NA,NA,NA,NA,NA,NA,NA,NA,NA,NA,0,NA,NA,0,0,0,0,0,0,0,"0"
"332","Midlife","Few","Early","Many",0,"None",0,1,2.3,1,5,0,0,0,0,0,0,0,0,0,0,0,0,0,0,0,NA,NA,0,0,0,0,0,0,0,"0"
"333","Midlife","Few","Normal","Many",0,"None",0,1,1,0,0,0,0,0,0,0,0,0,0,0,0,0,0,0,0,0,NA,NA,0,0,0,0,0,0,0,"0"
"334","Young","Normal","Normal","Many",0,"None",0,1,5,0,0,0,0,0,0,0,0,0,0,0,0,0,0,0,0,0,NA,NA,0,0,0,0,0,0,0,"0"
"335","Young","Few","Normal","Normal",0,"None",0,1,1,0,0,0,0,0,0,0,0,0,0,0,0,0,0,0,0,0,NA,NA,0,0,0,0,0,0,0,"0"
"336","Midlife","Few","Normal","Many",0,"None",0,0,0,0,0,0,0,0,0,0,0,0,0,0,0,0,0,0,0,0,NA,NA,1,0,1,1,0,1,1,"1"
"337","Young","Few","Normal","Normal",0,"None",0,1,7,0,0,0,0,0,0,0,0,0,0,0,0,0,0,0,0,0,NA,NA,0,0,0,0,0,0,0,"0"
"338","Midlife","Few","Normal","Many",1,"Many",8,1,7,0,0,0,0,0,0,0,0,0,0,0,0,0,0,0,0,0,NA,NA,0,0,0,0,0,0,0,"0"
"339","Young","Normal","Early","Normal",1,"Few",3,NA,NA,NA,NA,NA,NA,NA,NA,NA,NA,NA,NA,NA,NA,NA,NA,NA,NA,0,NA,NA,0,0,0,0,0,0,0,"0"
"340","Young","Few","Normal","Normal",0,"None",0,1,0.1,0,0,0,0,0,0,0,0,0,0,0,0,0,0,0,0,0,NA,NA,0,0,0,0,0,0,0,"0"
"341","Young","Normal","Normal","Normal",0,"None",0,1,1,0,0,0,0,0,0,0,0,0,0,0,0,0,0,0,0,0,NA,NA,0,0,0,0,0,0,0,"0"
"342","Young","Few","Normal","Normal",0,"None",0,NA,NA,NA,NA,NA,NA,NA,NA,NA,NA,NA,NA,NA,NA,NA,NA,NA,NA,0,NA,NA,0,0,0,0,0,0,0,"0"
"343","Young","Few","Normal","Normal",0,"None",0,1,0.5,0,0,0,0,0,0,0,0,0,0,0,0,0,0,0,0,0,NA,NA,0,0,0,0,0,0,0,"0"
"344","Young","Few","Early","Normal",1,"Few",0.2,NA,NA,NA,NA,NA,NA,NA,NA,NA,NA,NA,NA,NA,NA,NA,NA,NA,NA,0,NA,NA,0,0,0,0,0,0,0,"0"
"345","Young","Few","Normal","Normal",0,"None",0,0,0,0,0,0,0,0,0,0,0,0,0,0,0,0,0,0,0,0,NA,NA,0,0,0,0,0,0,0,"0"
"346","Young","Normal","Normal","Normal",0,"None",0,1,0.5,0,0,NA,NA,NA,NA,NA,NA,NA,NA,NA,NA,NA,NA,NA,NA,0,NA,NA,0,0,0,0,0,1,0,"1"
"347","Young","Normal","Early","Normal",0,"None",0,NA,NA,NA,NA,NA,NA,NA,NA,NA,NA,NA,NA,NA,NA,NA,NA,NA,NA,0,NA,NA,0,0,0,0,0,0,0,"0"
"348","Young","Few","Early","Normal",0,"None",0,1,0.5,0,0,0,0,0,0,0,0,0,0,0,0,0,0,0,0,0,NA,NA,0,0,0,0,0,0,0,"0"
"349","Young","Few","Normal","Normal",0,"None",0,0,0,0,0,0,0,0,0,0,0,0,0,0,0,0,0,0,0,0,NA,NA,0,0,0,0,0,0,0,"0"
"350","Young","Normal","Normal","Normal",0,"None",0,1,1,0,0,0,0,0,0,0,0,0,0,0,0,0,0,0,0,0,NA,NA,0,0,0,0,0,0,0,"0"
"351","Young","Few","Normal","Normal",0,"None",0,NA,NA,NA,NA,NA,NA,NA,NA,NA,NA,NA,NA,NA,NA,NA,NA,NA,NA,0,NA,NA,0,0,0,0,0,0,0,"0"
"352","Young","Normal","Early","Normal",0,"None",0,1,4,0,0,0,0,0,0,0,0,0,0,0,0,0,0,0,0,0,NA,NA,0,0,0,0,0,0,0,"0"
"353","Young","Normal","Early","Normal",0,"None",0,0,0,0,0,0,0,0,0,0,0,0,0,0,0,0,0,0,0,0,NA,NA,0,0,0,0,0,0,0,"0"
"354","Young","Few","Early","Normal",0,"None",0,NA,NA,NA,NA,NA,NA,NA,NA,NA,NA,NA,NA,NA,NA,NA,NA,NA,NA,0,NA,NA,0,0,0,0,0,0,0,"0"
"355","Midlife","Few","Normal","Many",0,"None",0,0,0,0,0,0,0,0,0,0,0,0,0,0,0,0,0,0,0,0,NA,NA,0,0,0,0,0,1,1,"0"
"356","Young","Normal","Early","Many",0,"None",0,0,0,0,0,1,2,1,0,0,1,0,0,0,0,0,0,0,0,1,6,6,0,0,0,0,0,0,0,"0"
"357","Young","Few","Normal","Normal",0,"None",0,0,0,0,0,0,0,0,0,0,0,0,0,0,0,0,0,0,0,0,NA,NA,0,0,0,0,0,0,0,"0"
"358","Young","Few","Early","Normal",0,"None",0,NA,NA,NA,NA,0,0,0,0,0,0,0,0,0,0,0,0,0,0,0,NA,NA,0,0,0,0,0,0,0,"0"
"359","Young","Few","Normal","Normal",0,"None",0,1,2,0,0,0,0,0,0,0,0,0,0,0,0,0,0,0,0,0,NA,NA,0,0,0,0,0,0,0,"0"
"360","Midlife","Few","Late","Many",0,"None",0,1,4,0,0,0,0,0,0,0,0,0,0,0,0,0,0,0,0,0,NA,NA,0,0,0,0,0,0,0,"0"
"361","Young","Few","Normal","Normal",0,"None",0,1,3,0,0,0,0,0,0,0,0,0,0,0,0,0,0,0,0,0,NA,NA,0,0,0,0,0,0,0,"0"
"362","Young","Normal","Normal","Normal",0,"None",0,1,0.2,0,0,0,0,0,0,0,0,0,0,0,0,0,0,0,0,0,NA,NA,0,0,0,0,0,0,0,"0"
"363","Young","Few","Early","Normal",0,"None",0,1,0.4,0,0,0,0,0,0,0,0,0,0,0,0,0,0,0,0,0,NA,NA,0,0,0,0,0,0,0,"0"
"364","Young","Few","Early","Normal",0,"None",0,1,0.3,0,0,0,0,0,0,0,0,0,0,0,0,0,0,0,0,0,NA,NA,0,0,0,0,0,0,0,"0"
"365","Young","Normal","Normal","Normal",0,"None",0,0,0,0,0,0,0,0,0,0,0,0,0,0,0,0,0,0,0,0,NA,NA,0,0,0,0,0,0,0,"0"
"366","Young","Few","Normal",NA,0,"None",0,1,0.8,0,0,0,0,0,0,0,0,0,0,0,0,0,0,0,0,0,NA,NA,0,0,0,0,0,0,0,"0"
"367","Young","Normal","Early","Normal",0,"None",0,1,0.2,0,0,0,0,0,0,0,0,0,0,0,0,0,0,0,0,0,NA,NA,0,0,0,0,0,0,0,"0"
"368","Young","Few","Normal","Normal",0,"None",0,0,0,0,0,0,0,0,0,0,0,0,0,0,0,0,0,0,0,0,NA,NA,0,0,0,0,0,0,0,"0"
"369","Young",NA,"Normal","Normal",0,"None",0,1,3,0,0,0,0,0,0,0,0,0,0,0,0,0,0,0,0,0,NA,NA,0,0,0,0,0,0,0,"0"
"370","Young","Few","Normal","Normal",0,"None",0,0,0,0,0,0,0,0,0,0,0,0,0,0,0,0,0,0,0,0,NA,NA,0,0,0,0,0,0,0,"0"
"371","Young","Normal","Early","Normal",0,"None",0,0,0,0,0,0,0,0,0,0,0,0,0,0,0,0,0,0,0,0,NA,NA,0,0,0,0,0,1,1,"1"
"372","Young","Normal","Normal","Normal",1,"Normal",2.2,1,1,0,0,0,0,0,0,0,0,0,0,0,0,0,0,0,0,0,NA,NA,0,0,0,0,0,0,0,"0"
"373","Young","Normal","Early","Normal",1,"Few",0.5,1,0.8,0,0,0,0,0,0,0,0,0,0,0,0,0,0,0,0,0,NA,NA,0,0,1,0,0,0,0,"0"
"374","Young","Few","Normal","Normal",0,"None",0,1,0.5,0,0,0,0,0,0,0,0,0,0,0,0,0,0,0,0,0,NA,NA,0,0,0,0,0,0,0,"0"
"375","Young","Normal","Early","Normal",1,"Few",1,0,0,0,0,1,1,0,0,0,0,1,0,0,0,0,0,0,0,1,3,3,0,0,0,0,0,0,0,"0"
"376","Young","Few","Normal","Normal",0,"None",0,1,1,0,0,0,0,0,0,0,0,0,0,0,0,0,0,0,0,0,NA,NA,0,0,0,0,0,0,0,"0"
"377","Midlife","Normal","Normal","Normal",0,"None",0,1,4,1,5,1,2,1,0,0,1,0,0,0,0,0,0,0,0,1,22,22,0,0,0,0,0,0,0,"0"
"378","Young","Few","Early","Many",1,"Few",3,1,0.5,0,0,0,0,0,0,0,0,0,0,0,0,0,0,0,0,0,NA,NA,0,0,0,0,0,0,0,"1"
"379","Young","Few","Early","Normal",0,"None",0,0,0,0,0,0,0,0,0,0,0,0,0,0,0,0,0,0,0,0,NA,NA,0,0,0,0,0,0,0,"0"
"380","Young","Few","Early","Normal",0,"None",0,0,0,0,0,0,0,0,0,0,0,0,0,0,0,0,0,0,0,0,NA,NA,0,0,0,0,0,0,0,"0"
"381","Young","Normal","Early","Normal",1,"Few",0,1,0.6,0,0,0,0,0,0,0,0,0,0,0,0,0,0,0,0,0,NA,NA,0,0,0,0,0,0,0,"0"
"382","Young","Normal","Early","Normal",0,"None",0,NA,NA,NA,NA,NA,NA,NA,NA,NA,NA,NA,NA,NA,NA,NA,NA,NA,NA,0,NA,NA,0,0,0,0,0,0,0,"0"
"383","Young","Normal","Normal","Normal",0,"None",0,0,0,0,0,0,0,0,0,0,0,0,0,0,0,0,0,0,0,0,NA,NA,0,0,0,0,0,0,0,"0"
"384","Young","Few","Early","Normal",0,"None",0,1,0.6,0,0,0,0,0,0,0,0,0,0,0,0,0,0,0,0,0,NA,NA,0,0,0,0,1,1,0,"1"
"385","Young","Few","Normal","Normal",0,"None",0,0,0,0,0,1,2,1,0,0,1,0,0,0,0,0,0,0,0,1,2,2,0,0,0,0,0,0,0,"0"
"386","Young","Normal","Early","Normal",0,"None",0,1,1,0,0,0,0,0,0,0,0,0,0,0,0,0,0,0,0,0,NA,NA,0,0,0,0,1,1,0,"0"
"387","Young","Few","Early","Normal",1,"Normal",3.5,1,1,0,0,0,0,0,0,0,0,0,0,0,0,0,0,0,0,0,NA,NA,0,0,0,0,0,0,1,"0"
"388","Young","Few","Normal","Normal",0,"None",0,0,0,0,0,0,0,0,0,0,0,0,0,0,0,0,0,0,0,0,NA,NA,0,0,0,0,0,0,0,"0"
"389","Young","Normal","Early","Normal",1,"Few",0.2,0,0,0,0,1,1,0,0,0,0,1,0,0,0,0,0,0,0,1,1,1,0,0,0,0,0,0,0,"0"
"390","Young","Few","Normal","Normal",0,"None",0,0,0,0,0,0,0,0,0,0,0,0,0,0,0,0,0,0,0,0,NA,NA,0,0,0,0,0,0,0,"0"
"391","Young","Few","Normal","Normal",0,"None",0,1,0.1,0,0,0,0,0,0,0,0,0,0,0,0,0,0,0,0,0,NA,NA,0,0,0,0,0,0,0,"0"
"392","Young",NA,"Early","Normal",0,"None",0,NA,NA,NA,NA,NA,NA,NA,NA,NA,NA,NA,NA,NA,NA,NA,NA,NA,NA,0,NA,NA,0,0,0,0,0,0,0,"0"
"393","Young","Few","Normal","Normal",0,"None",0,0,0,0,0,0,0,0,0,0,0,0,0,0,0,0,0,0,0,0,NA,NA,0,0,0,0,0,0,0,"0"
"394","Young","Normal","Early","Normal",0,"None",0,0,0,0,0,0,0,0,0,0,0,0,0,0,0,0,0,0,0,0,NA,NA,0,0,0,0,0,0,0,"0"
"395","Young","Few","Normal","Normal",1,"Normal",7,0,0,0,0,1,2,0,0,0,0,0,0,0,0,0,1,1,0,1,21,21,0,0,0,0,0,0,0,"0"
"396","Young","Few","Normal","Normal",0,"None",0,0,0,0,0,0,0,0,0,0,0,0,0,0,0,0,0,0,0,0,NA,NA,0,0,0,0,0,0,0,"0"
"397","Young","Normal","Early","Normal",1,"Few",0.4,NA,NA,NA,NA,0,0,0,0,0,0,0,0,0,0,0,0,0,0,0,NA,NA,0,0,0,0,0,0,0,"0"
"398","Young","Few","Normal","Normal",0,"None",0,1,3,0,0,1,2,1,0,0,1,0,0,0,0,0,0,0,0,1,1,1,0,0,0,0,0,0,0,"0"
"399","Young",NA,"Normal","Normal",0,"None",0,NA,NA,NA,NA,NA,NA,NA,NA,NA,NA,NA,NA,NA,NA,NA,NA,NA,NA,0,NA,NA,0,0,0,0,0,0,0,"0"
"400","Young","Few","Early","Normal",0,"None",0,1,0.5,0,0,0,0,0,0,0,0,0,0,0,0,0,0,0,0,0,NA,NA,0,0,0,0,0,0,0,"0"
"401","Young","Few","Early","Normal",0,"None",0,1,0.3,0,0,0,0,0,0,0,0,0,0,0,0,0,0,0,0,0,NA,NA,0,0,0,0,0,0,0,"0"
"402","Young","Few","Normal","Normal",0,"None",0,1,5,0,0,0,0,0,0,0,0,0,0,0,0,0,0,0,0,0,NA,NA,0,0,0,0,0,0,0,"0"
"403","Young","Normal","Early","Normal",0,"None",0,1,0.6,0,0,0,0,0,0,0,0,0,0,0,0,0,0,0,0,0,NA,NA,0,0,0,0,0,0,0,"0"
"404","Young","Normal","Early","Normal",0,"None",0,0,0,0,0,0,0,0,0,0,0,0,0,0,0,0,0,0,0,0,NA,NA,0,0,0,0,0,0,0,"0"
"405","Young","Few","Early","Normal",0,"None",0,0,0,0,0,0,0,0,0,0,0,0,0,0,0,0,0,0,0,0,NA,NA,0,0,0,0,0,0,0,"0"
"406","Young","Few","Normal","Normal",0,"None",0,NA,NA,NA,NA,NA,NA,NA,NA,NA,NA,NA,NA,NA,NA,NA,NA,NA,NA,0,NA,NA,0,0,0,0,0,0,0,"0"
"407","Young","Few","Normal","Normal",0,"None",0,0,0,0,0,0,0,0,0,0,0,0,0,0,0,0,0,0,0,0,NA,NA,0,0,0,0,0,0,0,"0"
"408","Young","Few","Early","Normal",0,"None",0,0,0,0,0,1,4,1,0,0,1,1,0,0,0,0,1,0,0,3,3,1,0,0,0,0,1,1,0,"0"
"409","Young","Few","Early","Normal",0,"None",0,NA,NA,NA,NA,NA,NA,NA,NA,NA,NA,NA,NA,NA,NA,NA,NA,NA,NA,0,NA,NA,0,0,0,0,0,0,0,"0"
"410","Young","Few","Early","Normal",0,"None",0,0,0,0,0,0,0,0,0,0,0,0,0,0,0,0,0,0,0,0,NA,NA,0,0,0,0,0,0,0,"0"
"411","Young","Few","Early","Normal",0,"None",0,1,0.4,0,0,0,0,0,0,0,0,0,0,0,0,0,0,0,0,0,NA,NA,0,0,0,0,0,0,0,"0"
"412","Young","Few","Normal","Normal",0,"None",0,0,0,0,0,0,0,0,0,0,0,0,0,0,0,0,0,0,0,0,NA,NA,0,0,0,0,1,1,1,"0"
"413","Young","Few","Early","Normal",0,"None",0,NA,NA,NA,NA,NA,NA,NA,NA,NA,NA,NA,NA,NA,NA,NA,NA,NA,NA,0,NA,NA,0,0,0,0,0,0,0,"0"
"414","Midlife","Normal","Late","Many",0,"None",0,0,0,0,0,0,0,0,0,0,0,0,0,0,0,0,0,0,0,0,NA,NA,0,0,0,0,0,0,0,"0"
"415","Young","Normal","Early","Normal",1,"Few",0.2,0,0,0,0,0,0,0,0,0,0,0,0,0,0,0,0,0,0,0,NA,NA,0,0,0,0,0,0,0,"0"
"416","Young","Normal","Early","Normal",0,"None",0,0,0,0,0,0,0,0,0,0,0,0,0,0,0,0,0,0,0,0,NA,NA,0,0,0,0,0,0,0,"0"
"417","Young","Few","Early","Normal",0,"None",0,0,0,0,0,0,0,0,0,0,0,0,0,0,0,0,0,0,0,0,NA,NA,0,0,0,0,0,0,0,"0"
"418","Young",NA,"Normal","Normal",0,"None",0,NA,NA,NA,NA,NA,NA,NA,NA,NA,NA,NA,NA,NA,NA,NA,NA,NA,NA,0,NA,NA,0,0,0,0,0,0,0,"0"
"419","Young","Few","Normal","Normal",0,"None",0,0,0,0,0,1,2,1,0,0,1,0,0,0,0,0,0,0,0,1,2,2,0,0,0,0,0,0,0,"0"
"420","Young","Normal","Early","Normal",0,"None",0,NA,NA,NA,NA,NA,NA,NA,NA,NA,NA,NA,NA,NA,NA,NA,NA,NA,NA,0,NA,NA,0,0,0,0,0,0,0,"0"
"421","Young","Few","Normal","Normal",0,"None",0,1,0.2,0,0,0,0,0,0,0,0,0,0,0,0,0,0,0,0,0,NA,NA,0,0,0,0,0,0,0,"0"
"422","Young","Normal","Early",NA,0,"None",0,1,0.3,NA,NA,0,0,0,0,0,0,0,0,0,0,0,0,0,0,0,NA,NA,0,0,0,0,1,1,0,"1"
"423","Young","Few","Early","Normal",1,NA,0,1,0.3,0,0,0,0,0,0,0,0,0,0,0,0,0,0,0,0,0,NA,NA,0,0,0,0,1,0,0,"0"
"424","Young","Few","Early","Normal",0,"None",0,0,0,0,0,0,0,0,0,0,0,0,0,0,0,0,0,0,0,0,NA,NA,0,0,0,0,0,0,0,"0"
"425","Young","Few","Normal","Normal",0,"None",0,0,0,0,0,1,2,1,0,0,1,0,0,0,0,0,0,0,0,1,4,4,0,0,0,0,0,0,1,"0"
"426","Young","Few","Early","Normal",0,"None",0,0,0,0,0,0,0,0,0,0,0,0,0,0,0,0,0,0,0,0,NA,NA,0,0,0,0,0,0,0,"0"
"427","Young","Many","Normal","Normal",1,"Normal",5,1,2,0,0,1,2,1,0,0,1,0,0,0,0,0,0,0,0,1,3,3,0,0,0,0,0,0,0,"0"
"428","Young","Few","Normal","Normal",0,"None",0,1,4,0,0,0,0,0,0,0,0,0,0,0,0,0,0,0,0,0,NA,NA,0,0,0,0,0,0,0,"0"
"429","Young","Few","Early","Normal",1,"Few",0.2,0,0,0,0,0,0,0,0,0,0,0,0,0,0,0,0,0,0,0,NA,NA,0,0,0,0,0,0,0,"0"
"430","Young","Few","Early","Normal",0,"None",0,1,0.1,0,0,0,0,0,0,0,0,0,0,0,0,0,0,0,0,0,NA,NA,0,0,0,0,0,0,0,"0"
"431","Young","Normal","Early","Normal",0,"None",0,1,0.4,0,0,0,0,0,0,0,0,0,0,0,0,0,0,0,0,0,NA,NA,0,0,0,0,0,0,0,"0"
"432","Young","Few","Early","Normal",0,"None",0,0,0,0,0,0,0,0,0,0,0,0,0,0,0,0,0,0,0,0,NA,NA,0,0,0,0,0,0,0,"0"
"433","Midlife","Normal","Normal","Normal",0,"None",0,0,0,1,7,0,0,0,0,0,0,0,0,0,0,0,0,0,0,0,NA,NA,1,0,0,1,0,0,0,"0"
"434","Young","Few","Early","Normal",0,"None",0,1,1,0,0,0,0,0,0,0,0,0,0,0,0,0,0,0,0,0,NA,NA,0,0,0,0,0,1,0,"0"
"435","Young","Normal","Normal","Normal",0,"None",0,1,0.2,0,0,0,0,0,0,0,0,0,0,0,0,0,0,0,0,0,NA,NA,0,0,0,0,0,0,1,"1"
"436","Young","Few","Early","Normal",0,"None",0,0,0,0,0,0,0,0,0,0,0,0,0,0,0,0,0,0,0,0,NA,NA,0,0,0,0,0,0,0,"0"
"437","Young","Normal","Early","Normal",0,"None",0,NA,NA,NA,NA,NA,NA,NA,NA,NA,NA,NA,NA,NA,NA,NA,NA,NA,NA,0,NA,NA,0,0,0,0,0,0,1,"0"
"438","Young","Few","Early","Normal",0,"None",0,0,0,0,0,0,0,0,0,0,0,0,0,0,0,0,0,0,0,0,NA,NA,0,0,0,0,0,0,0,"0"
"439","Young","Normal","Normal","Normal",0,"None",0,0,0,0,0,0,0,0,0,0,0,0,0,0,0,0,0,0,0,0,NA,NA,0,0,0,0,0,0,0,"0"
"440","Young","Normal","Normal","Normal",0,"None",0,1,1,0,0,0,0,0,0,0,0,0,0,0,0,0,0,0,0,0,NA,NA,0,0,0,0,0,0,1,"0"
"441","Young","Few","Early","Normal",0,"None",0,0,0,0,0,0,0,0,0,0,0,0,0,0,0,0,0,0,0,0,NA,NA,0,0,0,0,0,0,0,"0"
"442","Young","Few","Early","Normal",0,"None",0,0,0,0,0,0,0,0,0,0,0,0,0,0,0,0,0,0,0,0,NA,NA,0,0,0,0,0,0,0,"0"
"443","Young","Few","Early","Normal",0,"None",0,0,0,0,0,0,0,0,0,0,0,0,0,0,0,0,0,0,0,0,NA,NA,0,0,0,0,0,0,0,"0"
"444","Young","Few","Early","Normal",0,"None",0,NA,NA,NA,NA,NA,NA,NA,NA,NA,NA,NA,NA,NA,NA,NA,NA,NA,NA,0,NA,NA,0,0,0,0,0,0,0,"0"
"445","Young","Few","Normal","Normal",0,"None",0,1,0.2,0,0,0,0,0,0,0,0,0,0,0,0,0,0,0,0,0,NA,NA,0,0,0,0,0,0,0,"0"
"446","Young","Few","Early","Normal",0,"None",0,NA,NA,NA,NA,NA,NA,NA,NA,NA,NA,NA,NA,NA,NA,NA,NA,NA,NA,0,NA,NA,0,0,0,0,0,0,0,"0"
"447","Young","Normal","Normal","Normal",1,"Normal",1.2,0,0,0,0,0,0,0,0,0,0,0,0,0,0,0,0,0,0,0,NA,NA,0,0,0,0,0,0,0,"0"
"448","Young","Normal","Early","Normal",0,"None",0,0,0,0,0,0,0,0,0,0,0,0,0,0,0,0,0,0,0,0,NA,NA,0,0,0,0,0,0,0,"0"
"449","Young","Normal","Normal","Normal",0,"None",0,1,0.2,0,0,1,1,0,0,0,0,1,0,0,0,0,0,0,0,1,1,1,0,0,0,0,0,0,0,"0"
"450","Young","Few","Normal","Normal",0,"None",0,1,1,0,0,0,0,0,0,0,0,0,0,0,0,0,0,0,0,0,NA,NA,0,0,0,0,0,0,0,"0"
"451","Young","Few","Early","Normal",0,"None",0,1,0.7,0,0,0,0,0,0,0,0,0,0,0,0,0,0,0,0,0,NA,NA,0,0,0,0,0,0,0,"0"
"452","Young","Few","Normal","Normal",NA,NA,NA,0,0,0,0,0,0,0,0,0,0,0,0,0,0,0,0,0,0,0,NA,NA,0,0,0,0,0,0,0,"0"
"453","Young","Few","Normal","Normal",0,"None",0,NA,NA,NA,NA,NA,NA,NA,NA,NA,NA,NA,NA,NA,NA,NA,NA,NA,NA,0,NA,NA,0,0,0,0,0,0,0,"0"
"454","Young","Few","Early","Normal",0,"None",0,NA,NA,NA,NA,NA,NA,NA,NA,NA,NA,NA,NA,NA,NA,NA,NA,NA,NA,0,NA,NA,0,0,0,0,0,0,0,"0"
"455","Young","Few","Early","Normal",0,"None",0,0,0,0,0,0,0,0,0,0,0,0,0,0,0,0,0,0,0,0,NA,NA,0,0,0,0,0,0,0,"0"
"456","Young","Few","Normal","Normal",0,"None",0,0,0,0,0,1,1,0,0,0,0,1,0,0,0,0,0,0,0,0,NA,NA,0,0,0,0,0,0,0,"0"
"457","Young","Few","Early","Normal",0,"None",0,0,0,0,0,0,0,0,0,0,0,0,0,0,0,0,0,0,0,0,NA,NA,0,0,0,0,0,0,0,"0"
"458","Young","Normal","Early","Normal",1,"Few",0.5,NA,NA,NA,NA,NA,NA,NA,NA,NA,NA,NA,NA,NA,NA,NA,NA,NA,NA,0,NA,NA,0,0,0,0,0,0,1,"0"
"459","Young","Few","Early","Normal",0,"None",0,0,0,0,0,0,0,0,0,0,0,0,0,0,0,0,0,0,0,0,NA,NA,0,0,0,0,0,0,1,"0"
"460","Young","Few","Early","Normal",0,"None",0,0,0,0,0,0,0,0,0,0,0,0,0,0,0,0,0,0,0,0,NA,NA,0,0,0,0,0,0,0,"0"
"461","Young",NA,"Early","Normal",0,"None",0,NA,NA,NA,NA,NA,NA,NA,NA,NA,NA,NA,NA,NA,NA,NA,NA,NA,NA,0,NA,NA,0,0,0,0,0,0,0,"0"
"462","Young","Normal","Early","Normal",0,"None",0,0,0,0,0,0,0,0,0,0,0,0,0,0,0,0,0,0,0,0,NA,NA,0,0,0,0,0,0,0,"0"
"463","Young","Normal","Early","Normal",0,"None",0,0,0,0,0,0,0,0,0,0,0,0,0,0,0,0,0,0,0,0,NA,NA,0,0,0,0,0,0,0,"0"
"464","Young","Few","Early","Normal",0,"None",0,0,0,0,0,0,0,0,0,0,0,0,0,0,0,0,0,0,0,0,NA,NA,0,0,0,0,0,0,0,"0"
"465","Young","Few","Early","Normal",0,"None",0,1,0.1,0,0,0,0,0,0,0,0,0,0,0,0,0,0,0,0,0,NA,NA,0,0,0,0,0,1,0,"0"
"466","Young","Few","Early","Normal",0,"None",0,0,0,0,0,0,0,0,0,0,0,0,0,0,0,0,0,0,0,0,NA,NA,0,0,0,0,0,0,0,"0"
"467","Young","Few","Early","Normal",0,"None",0,0,0,0,0,0,0,0,0,0,0,0,0,0,0,0,0,0,0,0,NA,NA,0,0,0,0,0,0,0,"0"
"468","Young","Many","Early","Normal",1,"Normal",5,0,0,0,0,0,0,0,0,0,0,0,0,0,0,0,0,0,0,0,NA,NA,0,0,0,0,0,0,0,"0"
"469","Young","Few","Early","Normal",0,"None",0,1,1,0,0,1,1,0,0,0,0,1,0,0,0,0,0,0,0,1,1,1,0,0,0,0,0,0,0,"0"
"470","Young","Few","Early","Normal",0,"None",0,0,0,0,0,0,0,0,0,0,0,0,0,0,0,0,0,0,0,0,NA,NA,0,0,0,0,0,0,0,"0"
"471","Midlife","Normal","Normal","Many",0,"None",0,1,3,0,0,0,0,0,0,0,0,0,0,0,0,0,0,0,0,0,NA,NA,0,0,0,0,0,0,0,"0"
"472","Young","Few","Normal","Normal",0,"None",0,1,1,0,0,0,0,0,0,0,0,0,0,0,0,0,0,0,0,0,NA,NA,0,0,0,0,0,0,0,"0"
"473","Midlife","Few","Normal","Normal",0,"None",0,1,1,0,0,0,0,0,0,0,0,0,0,0,0,0,0,0,0,0,NA,NA,0,0,0,0,1,1,0,"1"
"474","Midlife","Normal","Normal","Many",0,"None",0,1,8,0,0,0,0,0,0,0,0,0,0,0,0,0,0,0,0,0,NA,NA,0,0,0,0,0,0,0,"0"
"475","Midlife","Normal","Normal","Many",0,"None",0,0,0,0,0,0,0,0,0,0,0,0,0,0,0,0,0,0,0,0,NA,NA,0,0,0,0,0,0,0,"0"
"476","Young","Normal","Early","Normal",0,"None",0,1,3,0,0,0,0,0,0,0,0,0,0,0,0,0,0,0,0,0,NA,NA,0,0,0,0,0,0,0,"0"
"477","Midlife","Few","Late","Normal",0,"None",0,NA,NA,NA,NA,NA,NA,NA,NA,NA,NA,NA,NA,NA,NA,NA,NA,NA,NA,0,NA,NA,0,0,0,0,0,0,0,"0"
"478","Midlife","Few","Normal","Normal",0,"None",0,0,0,0,0,0,0,0,0,0,0,0,0,0,0,0,0,0,0,0,NA,NA,0,0,0,0,0,0,0,"0"
"479","Midlife","Normal","Normal","Normal",1,"Normal",9,0,0,0,0,0,0,0,0,0,0,0,0,0,0,0,0,0,0,0,NA,NA,0,0,0,0,0,0,0,"0"
"480","Midlife","Few","Late","Normal",0,"None",0,1,0.5,0,0,0,0,0,0,0,0,0,0,0,0,0,0,0,0,0,NA,NA,0,0,0,0,0,0,0,"0"
"481","Midlife","Normal","Early","Many",0,"None",0,NA,NA,NA,NA,1,1,0,0,0,0,1,0,0,0,0,0,0,0,0,NA,NA,0,0,0,0,0,0,0,"0"
"482","Midlife",NA,"Normal","Normal",0,"None",0,0,0,0,0,0,0,0,0,0,0,0,0,0,0,0,0,0,0,0,NA,NA,0,0,0,0,0,0,0,"0"
"483","Midlife","Few","Normal","Many",0,"None",0,1,8,1,3,0,0,0,0,0,0,0,0,0,0,0,0,0,0,0,NA,NA,0,0,0,0,0,1,0,"0"
"484","Young","Normal","Normal","Many",0,"None",0,1,3,0,0,0,0,0,0,0,0,0,0,0,0,0,0,0,0,0,NA,NA,0,0,0,0,0,0,0,"0"
"485","Young","Few","Normal","Normal",0,"None",0,0,0,0,0,0,0,0,0,0,0,0,0,0,0,0,0,0,0,0,NA,NA,0,0,0,0,0,0,0,"0"
"486","Young","Few","Normal","Normal",0,"None",0,0,0,0,0,0,0,0,0,0,0,0,0,0,0,0,0,0,0,0,NA,NA,0,0,0,0,0,0,0,"0"
"487","Midlife","Few","Normal","Normal",0,"None",0,1,1,0,0,0,0,0,0,0,0,0,0,0,0,0,0,0,0,0,NA,NA,0,0,0,0,0,0,0,"0"
"488","Midlife","Few","Late","Normal",0,"None",0,1,2,0,0,0,0,0,0,0,0,0,0,0,0,0,0,0,0,0,NA,NA,0,0,0,0,0,0,0,"0"
"489","Young","Few","Normal","Normal",0,"None",0,1,6,0,0,0,0,0,0,0,0,0,0,0,0,0,0,0,0,0,NA,NA,0,0,0,0,0,0,0,"0"
"490","Young","Normal","Early","Normal",0,"None",0,NA,NA,NA,NA,NA,NA,NA,NA,NA,NA,NA,NA,NA,NA,NA,NA,NA,NA,0,NA,NA,0,0,0,0,0,0,0,"0"
"491","Young","Few","Normal","Normal",0,"None",0,NA,NA,NA,NA,1,2,1,0,0,1,0,0,0,0,0,0,0,0,1,3,3,0,0,0,0,0,0,0,"0"
"492","Young","Few","Normal","Normal",0,"None",0,1,1,0,0,0,0,0,0,0,0,0,0,0,0,0,0,0,0,0,NA,NA,0,0,0,0,0,0,0,"0"
"493","Midlife","Few","Late","Normal",0,"None",0,1,2,0,0,0,0,0,0,0,0,0,0,0,0,0,0,0,0,0,NA,NA,0,0,0,0,0,0,0,"0"
"494","Young","Few","Early","Normal",0,"None",0,0,0,0,0,0,0,0,0,0,0,0,0,0,0,0,0,0,0,0,NA,NA,0,0,0,0,0,0,1,"0"
"495","Young","Few","Normal","Normal",0,"None",0,1,0.5,0,0,0,0,0,0,0,0,0,0,0,0,0,0,0,0,0,NA,NA,0,0,0,0,0,0,0,"0"
"496","Young",NA,"Normal","Normal",0,"None",0,NA,NA,NA,NA,NA,NA,NA,NA,NA,NA,NA,NA,NA,NA,NA,NA,NA,NA,0,NA,NA,0,0,0,0,0,0,0,"0"
"497","Midlife","Few","Normal","Normal",0,"None",0,1,0.5,0,0,0,0,0,0,0,0,0,0,0,0,0,0,0,0,0,NA,NA,0,0,0,0,1,1,0,"1"
"498","Young","Normal","Early","Normal",1,"Normal",2,1,4,0,0,0,0,0,0,0,0,0,0,0,0,0,0,0,0,0,NA,NA,0,0,0,0,0,0,0,"0"
"499","Midlife","Few","Late","Normal",0,"None",0,0,0,0,0,1,1,0,0,0,0,0,0,0,0,0,1,0,0,1,4,4,0,0,0,0,0,0,0,"0"
"500","Midlife","Few","Normal","Many",0,"None",0,1,0.3,0,0,0,0,0,0,0,0,0,0,0,0,0,0,0,0,0,NA,NA,0,0,0,0,0,0,0,"0"
"501","Midlife","Normal","Late","Normal",0,"None",0,1,0.1,0,0,0,0,0,0,0,0,0,0,0,0,0,0,0,0,0,NA,NA,0,0,0,0,0,0,0,"0"
"502","Midlife","Few","Late","Normal",0,"None",0,1,7,0,0,0,0,0,0,0,0,0,0,0,0,0,0,0,0,0,NA,NA,0,0,0,0,0,0,0,"0"
"503","Young","Normal","Early","Normal",0,"None",0,1,5,0,0,0,0,0,0,0,0,0,0,0,0,0,0,0,0,0,NA,NA,0,0,0,0,0,0,0,"0"
"504","Midlife","Normal","Normal","Many",0,"None",0,1,4,1,0.3,0,0,0,0,0,0,0,0,0,0,0,0,0,0,0,NA,NA,0,0,0,0,0,0,0,"0"
"505","Young","Few","Normal","Normal",0,"None",0,0,0,0,0,0,0,0,0,0,0,0,0,0,0,0,0,0,0,0,NA,NA,0,0,0,0,0,0,0,"0"
"506","Young","Few","Normal","Normal",0,"None",0,NA,NA,NA,NA,NA,NA,NA,NA,NA,NA,NA,NA,NA,NA,NA,NA,NA,NA,0,NA,NA,0,0,0,0,0,0,0,"0"
"507","Midlife","Few","Late","Many",1,"Many",4.8,0,0,0,0,1,3,1,0,1,1,0,0,0,0,0,0,0,0,1,7,7,0,0,0,0,0,0,0,"0"
"508","Young","Few","Early","Normal",0,"None",0,0,0,0,0,0,0,0,0,0,0,0,0,0,0,0,0,0,0,0,NA,NA,0,0,0,0,0,0,0,"0"
"509","Midlife","Few","Normal","Normal",1,"Normal",4.5,1,6,0,0,1,2,1,0,0,1,0,0,0,0,0,0,0,0,1,16,16,0,0,0,0,0,0,0,"0"
"510","Young","Few","Normal","Normal",0,"None",0,1,2.5,0,0,0,0,0,0,0,0,0,0,0,0,0,0,0,0,0,NA,NA,0,0,0,0,0,0,0,"0"
"511","Young","Normal","Early","Normal",0,"None",0,1,1,0,0,0,0,0,0,0,0,0,0,0,0,0,0,0,0,0,NA,NA,0,0,0,0,0,0,0,"0"
"512","Young","Few","Normal","Normal",0,"None",0,1,0.1,0,0,0,0,0,0,0,0,0,0,0,0,0,0,0,0,0,NA,NA,0,0,0,0,0,0,0,"0"
"513","Midlife","Normal","Normal","Normal",1,"Normal",4.5,NA,NA,NA,NA,NA,NA,NA,NA,NA,NA,NA,NA,NA,NA,NA,NA,NA,NA,0,NA,NA,0,0,0,0,0,0,0,"0"
"514","Young","Few","Normal","Normal",0,"None",0,0,0,0,0,0,0,0,0,0,0,0,0,0,0,0,0,0,0,0,NA,NA,0,0,0,0,0,0,0,"0"
"515","Midlife","Normal","Late","Normal",0,"None",0,1,1,0,0,0,0,0,0,0,0,0,0,0,0,0,0,0,0,0,NA,NA,0,0,0,0,0,0,0,"0"
"516","Midlife","Normal","Early","Many",0,"None",0,1,1,0,0,0,0,0,0,0,0,0,0,0,0,0,0,0,0,0,NA,NA,0,0,0,0,0,0,0,"0"
"517","Young","Few","Normal","Normal",0,"None",0,1,1,0,0,0,0,0,0,0,0,0,0,0,0,0,0,0,0,0,NA,NA,0,0,0,0,0,0,0,"0"
"518","Midlife","Few","Normal","Normal",0,"None",0,1,5,0,0,0,0,0,0,0,0,0,0,0,0,0,0,0,0,0,NA,NA,0,0,0,0,0,0,0,"0"
"519","Young","Normal","Normal","Normal",1,"Few",0.5,1,5,0,0,0,0,0,0,0,0,0,0,0,0,0,0,0,0,0,NA,NA,0,0,0,0,0,0,0,"0"
"520","Young","Few","Normal","Normal",0,"None",0,1,2,0,0,0,0,0,0,0,0,0,0,0,0,0,0,0,0,0,NA,NA,0,0,0,0,0,0,0,"0"
"521","Young","Few","Early","Normal",0,"None",0,1,1,0,0,0,0,0,0,0,0,0,0,0,0,0,0,0,0,0,NA,NA,0,0,0,0,0,0,0,"0"
"522","Midlife","Few","Normal","Normal",0,"None",0,1,0.7,1,2,0,0,0,0,0,0,0,0,0,0,0,0,0,0,0,NA,NA,0,0,0,0,0,0,0,"0"
"523","Young","Few","Early","Normal",1,"Few",0.2,1,0.1,0,0,0,0,0,0,0,0,0,0,0,0,0,0,0,0,0,NA,NA,0,0,0,0,0,0,0,"0"
"524","Midlife","Normal","Normal","Normal",0,"None",0,1,0.2,0,0,0,0,0,0,0,0,0,0,0,0,0,0,0,0,0,NA,NA,0,0,0,0,0,0,0,"0"
"525","Midlife","Few","Normal","Normal",0,"None",0,1,0.2,1,5,0,0,0,0,0,0,0,0,0,0,0,0,0,0,0,NA,NA,0,0,0,0,0,0,0,"0"
"526","Young","Few","Normal","Normal",0,"None",0,NA,NA,NA,NA,NA,NA,NA,NA,NA,NA,NA,NA,NA,NA,NA,NA,NA,NA,0,NA,NA,0,0,0,0,0,0,0,"0"
"527","Midlife","Normal","Normal","Many",0,"None",0,0,0,0,0,0,0,0,0,0,0,0,0,0,0,0,0,0,0,0,NA,NA,0,0,0,0,0,0,0,"0"
"528","Young","Few","Normal","Normal",0,"None",0,NA,NA,NA,NA,NA,NA,NA,NA,NA,NA,NA,NA,NA,NA,NA,NA,NA,NA,0,NA,NA,0,0,0,0,0,0,0,"0"
"529","Midlife","Few","Early","Normal",0,"None",0,NA,NA,NA,NA,NA,NA,NA,NA,NA,NA,NA,NA,NA,NA,NA,NA,NA,NA,0,NA,NA,0,0,0,0,0,0,0,"0"
"530","Midlife","Normal","Normal","Normal",0,"None",0,1,5,0,0,0,0,0,0,0,0,0,0,0,0,0,0,0,0,0,NA,NA,0,0,0,0,0,0,0,"0"
"531","Young","Normal","Early","Normal",0,"None",0,0,0,0,0,0,0,0,0,0,0,0,0,0,0,0,0,0,0,0,NA,NA,0,0,0,0,0,1,1,"1"
"532","Young","Few","Early","Normal",0,"None",0,1,4,0,0,0,0,0,0,0,0,0,0,0,0,0,0,0,0,0,NA,NA,0,0,0,0,0,0,0,"0"
"533","Young","Normal","Normal","Normal",0,"None",0,1,2,0,0,0,0,0,0,0,0,0,0,0,0,0,0,0,0,0,NA,NA,0,0,0,0,0,0,0,"0"
"534","Young","Few","Normal","Normal",0,"None",0,0,0,0,0,0,0,0,0,0,0,0,0,0,0,0,0,0,0,0,NA,NA,0,0,0,0,0,0,0,"0"
"535","Young","Few","Normal","Normal",0,"None",0,1,0.1,0,0,0,0,0,0,0,0,0,0,0,0,0,0,0,0,0,NA,NA,0,0,0,0,0,0,0,"0"
"536","Young","Normal","Normal","Normal",0,"None",0,0,0,0,0,0,0,0,0,0,0,0,0,0,0,0,0,0,0,0,NA,NA,0,0,0,0,0,0,0,"0"
"537","Young","Few","Early","Normal",0,"None",0,0,0,0,0,0,0,0,0,0,0,0,0,0,0,0,0,0,0,0,NA,NA,0,0,0,0,0,0,0,"0"
"538","Young","Normal","Early","Normal",1,"Few",1,0,0,0,0,0,0,0,0,0,0,0,0,0,0,0,0,0,0,0,NA,NA,0,0,0,0,0,0,0,"0"
"539","Young","Normal","Normal","Normal",0,"None",0,1,0.2,0,0,0,0,0,0,0,0,0,0,0,0,0,0,0,0,0,NA,NA,0,0,0,0,0,0,0,"0"
"540","Young","Few","Normal","Normal",1,"Few",0,0,0,0,0,1,2,1,0,0,1,0,0,0,0,0,0,0,0,1,1,1,0,0,0,0,1,1,0,"1"
"541","Young","Normal","Normal","Normal",0,"None",0,0,0,0,0,0,0,0,0,0,0,0,0,0,0,0,0,0,0,0,NA,NA,0,0,0,0,0,0,0,"0"
"542","Midlife","Normal","Normal","Normal",0,"None",0,1,1,0,0,0,0,0,0,0,0,0,0,0,0,0,0,0,0,0,NA,NA,0,0,0,0,0,0,0,"0"
"543","Young","Normal","Normal","Normal",0,"None",0,NA,NA,NA,NA,NA,NA,NA,NA,NA,NA,NA,NA,NA,NA,NA,NA,NA,NA,0,NA,NA,0,0,0,0,0,0,0,"0"
"544","Young","Normal","Early","Normal",0,"None",0,1,1,0,0,0,0,0,0,0,0,0,0,0,0,0,0,0,0,0,NA,NA,0,0,0,0,0,0,0,"0"
"545","Young","Few","Early",NA,0,"None",0,NA,NA,NA,NA,NA,NA,NA,NA,NA,NA,NA,NA,NA,NA,NA,NA,NA,NA,0,NA,NA,0,0,0,0,0,0,0,"0"
"546","Midlife","Normal","Normal",NA,0,"None",0,1,4.5,0,0,0,0,0,0,0,0,0,0,0,0,0,0,0,0,0,NA,NA,0,0,0,0,0,0,0,"0"
"547","Young","Few","Normal","Normal",0,"None",0,1,4,0,0,1,2,1,0,0,1,0,0,0,0,0,0,0,0,0,NA,NA,0,0,0,0,0,0,0,"0"
"548","Young","Normal","Early","Normal",0,"None",0,NA,NA,NA,NA,NA,NA,NA,NA,NA,NA,NA,NA,NA,NA,NA,NA,NA,NA,0,NA,NA,0,0,0,0,0,0,0,"0"
"549","Young","Few","Early","Normal",0,"None",0,1,0.2,0,0,0,0,0,0,0,0,0,0,0,0,0,0,0,0,0,NA,NA,0,0,0,0,0,0,0,"0"
"550","Midlife","Few","Normal","Normal",0,"None",0,1,9,1,6,0,0,0,0,0,0,0,0,0,0,0,0,0,0,0,NA,NA,0,0,0,0,0,1,0,"1"
"551","Young","Normal","Normal","Normal",1,"Few",0.1,1,3,0,0,0,0,0,0,0,0,0,0,0,0,0,0,0,0,0,NA,NA,0,0,0,0,0,0,0,"0"
"552","Midlife","Normal","Normal","Normal",0,"None",0,NA,NA,NA,NA,NA,NA,NA,NA,NA,NA,NA,NA,NA,NA,NA,NA,NA,NA,0,NA,NA,0,0,0,0,0,0,0,"0"
"553","Young","Normal","Normal","Normal",NA,NA,NA,NA,NA,NA,NA,NA,NA,NA,NA,NA,NA,NA,NA,NA,NA,NA,NA,NA,NA,0,NA,NA,0,0,0,0,0,0,0,"0"
"554","Midlife","Normal","Early","Many",0,"None",0,1,0.1,0,0,0,0,0,0,0,0,0,0,0,0,0,0,0,0,0,NA,NA,0,0,0,0,0,0,0,"0"
"555","Young","Normal","Early","Normal",0,"None",0,1,1,0,0,0,0,0,0,0,0,0,0,0,0,0,0,0,0,0,NA,NA,0,0,0,0,0,0,0,"0"
"556","Young","Normal","Normal","Normal",0,"None",0,1,0.4,0,0,0,0,0,0,0,0,0,0,0,0,0,0,0,0,0,NA,NA,0,0,0,0,0,0,0,"0"
"557","Midlife","Few","Late","Many",0,"None",0,1,0.2,0,0,1,2,1,0,0,1,0,0,0,0,0,0,0,0,1,1,1,0,0,0,0,0,0,0,"0"
"558","Midlife","Few","Normal","Normal",0,"None",0,1,0.2,0,0,0,0,0,0,0,0,0,0,0,0,0,0,0,0,0,NA,NA,0,0,0,0,0,0,0,"0"
"559","Young","Few","Late","Normal",0,"None",0,0,0,0,0,0,0,0,0,0,0,0,0,0,0,0,0,0,0,0,NA,NA,0,0,0,0,0,0,0,"0"
"560","Young","Few","Normal","Normal",0,"None",0,0,0,0,0,0,0,0,0,0,0,0,0,0,0,0,0,0,0,0,NA,NA,0,0,0,0,0,0,0,"0"
"561","Midlife","Few","Late","Normal",0,"None",0,1,6.5,0,0,0,0,0,0,0,0,0,0,0,0,0,0,0,0,0,NA,NA,0,0,0,0,0,0,0,"0"
"562","Young","Few","Early","Normal",0,"None",0,1,0.2,0,0,0,0,0,0,0,0,0,0,0,0,0,0,0,0,0,NA,NA,0,0,0,0,0,0,0,"0"
"563","Young","Few","Early","Normal",0,"None",0,1,1,0,0,0,0,0,0,0,0,0,0,0,0,0,0,0,0,0,NA,NA,0,0,0,0,0,0,0,"0"
"564","Midlife","Few","Late","Normal",1,"Many",2.4,0,0,0,0,1,3,1,0,1,1,0,0,0,0,0,0,0,0,1,1,1,0,0,0,0,0,0,0,"0"
"565","Young","Few","Normal","Normal",NA,NA,NA,NA,NA,NA,NA,0,0,0,0,0,0,0,0,0,0,0,0,0,0,0,NA,NA,0,0,0,0,0,0,0,"0"
"566","Young","Few","Normal","Normal",0,"None",0,0,0,0,0,0,0,0,0,0,0,0,0,0,0,0,0,0,0,0,NA,NA,0,0,0,0,0,0,1,"0"
"567","Midlife","Few","Early","Normal",0,"None",0,0,0,0,0,0,0,0,0,0,0,0,0,0,0,0,0,0,0,0,NA,NA,0,0,0,0,0,0,0,"0"
"568","Young","Few","Normal","Normal",0,"None",0,1,10,0,0,0,0,0,0,0,0,0,0,0,0,0,0,0,0,0,NA,NA,0,0,0,0,0,0,0,"0"
"569","Young","Few","Normal","Normal",0,"None",0,0,0,0,0,0,0,0,0,0,0,0,0,0,0,0,0,0,0,0,NA,NA,0,0,0,0,0,0,0,"0"
"570","Midlife","Few","Late","Normal",0,"None",0,0,0,0,0,0,0,0,0,0,0,0,0,0,0,0,0,0,0,0,NA,NA,0,0,0,0,0,0,0,"0"
"571","Midlife","Few","Normal","Normal",0,"None",0,1,6,0,0,0,0,0,0,0,0,0,0,0,0,0,0,0,0,0,NA,NA,0,0,0,0,0,0,0,"0"
"572","Young","Few","Early","Normal",0,"None",0,0,0,0,0,0,0,0,0,0,0,0,0,0,0,0,0,0,0,0,NA,NA,0,0,0,0,0,0,0,"0"
"573","Young","Few","Early","Normal",1,"Normal",0.4,1,7,0,0,0,0,0,0,0,0,0,0,0,0,0,0,0,0,0,NA,NA,0,0,0,0,0,0,0,"0"
"574","Midlife","Few","Normal","Normal",1,"Normal",0.4,1,0.2,0,0,0,0,0,0,0,0,0,0,0,0,0,0,0,0,0,NA,NA,0,0,0,0,0,0,0,"0"
"575","Young","Few","Normal","Normal",0,"None",0,1,2,0,0,0,0,0,0,0,0,0,0,0,0,0,0,0,0,0,NA,NA,0,0,0,0,0,0,0,"0"
"576","Young","Few","Early","Normal",0,"None",0,0,0,0,0,0,0,0,0,0,0,0,0,0,0,0,0,0,0,0,NA,NA,0,0,0,0,0,0,0,"0"
"577","Midlife","Normal","Early","Normal",0,"None",0,NA,NA,NA,NA,NA,NA,NA,NA,NA,NA,NA,NA,NA,NA,NA,NA,NA,NA,0,NA,NA,0,0,0,0,0,0,0,"0"
"578","Young","Normal","Early","Normal",0,"None",0,0,0,0,0,0,0,0,0,0,0,0,0,0,0,0,0,0,0,0,NA,NA,0,0,0,0,0,1,0,"0"
"579","Young","Few","Normal","Normal",0,"None",0,1,1,0,0,0,0,0,0,0,0,0,0,0,0,0,0,0,0,0,NA,NA,1,0,1,1,1,1,1,"1"
"580","Midlife","Many","Early","Many",1,"Many",1.6,1,5,0,0,0,0,0,0,0,0,0,0,0,0,0,0,0,0,0,NA,NA,0,0,0,0,0,0,0,"0"
"581","Young","Few","Early","Normal",0,"None",0,1,0.3,0,0,0,0,0,0,0,0,0,0,0,0,0,0,0,0,0,NA,NA,0,0,0,0,0,0,0,"0"
"582","Young","Few","Early","Normal",0,"None",0,1,2,0,0,0,0,0,0,0,0,0,0,0,0,0,0,0,0,0,NA,NA,0,0,0,0,0,0,0,"0"
"583","Young","Normal","Early","Normal",0,"None",0,1,5,0,0,0,0,0,0,0,0,0,0,0,0,0,0,0,0,0,NA,NA,0,0,0,0,0,0,0,"0"
"584","Young","Normal","Normal","Normal",0,"None",0,0,0,0,0,0,0,0,0,0,0,0,0,0,0,0,0,0,0,0,NA,NA,0,0,0,0,0,0,0,"0"
"585","Midlife","Few","Normal","Normal",0,"None",0,0,0,0,0,0,0,0,0,0,0,0,0,0,0,0,0,0,0,0,NA,NA,0,0,0,0,0,0,0,"0"
"586","Midlife","Normal","Late","Normal",0,"None",0,1,1,0,0,0,0,0,0,0,0,0,0,0,0,0,0,0,0,0,NA,NA,0,0,0,0,0,0,0,"0"
"587","Young","Normal","Early","Normal",1,"Normal",0.5,NA,NA,NA,NA,NA,NA,NA,NA,NA,NA,NA,NA,NA,NA,NA,NA,NA,NA,0,NA,NA,0,0,0,0,0,0,0,"0"
"588","Midlife","Normal","Early","Many",1,"Normal",3,1,8,0,0,0,0,0,0,0,0,0,0,0,0,0,0,0,0,0,NA,NA,0,0,0,0,0,0,0,"0"
"589","Midlife","Normal","Early","Many",0,"None",0,1,0.7,0,0,0,0,0,0,0,0,0,0,0,0,0,0,0,0,0,NA,NA,0,0,0,0,0,0,0,"0"
"590","Midlife","Normal","Normal","Many",0,"None",0,1,1,0,0,0,0,0,0,0,0,0,0,0,0,0,0,0,0,0,NA,NA,0,0,0,0,0,0,0,"0"
"591","Young","Few","Early","Normal",0,"None",0,0,0,0,0,1,3,1,0,1,1,0,0,0,0,0,0,0,0,1,1,1,0,0,0,0,0,0,0,"0"
"592","Young","Normal","Early","Normal",0,"None",0,1,0.2,0,0,0,0,0,0,0,0,0,0,0,0,0,0,0,0,0,NA,NA,0,0,0,0,0,0,0,"0"
"593","Young","Normal","Early","Normal",1,"Normal",6,1,0.1,1,4,0,0,0,0,0,0,0,0,0,0,0,0,0,0,0,NA,NA,0,0,0,0,0,0,0,"0"
"594","Young","Few","Early","Normal",0,"None",0,0,0,0,0,0,0,0,0,0,0,0,0,0,0,0,0,0,0,0,NA,NA,0,0,0,0,0,0,0,"0"
"595","Young","Normal","Normal","Normal",0,"None",0,1,1,0,0,0,0,0,0,0,0,0,0,0,0,0,0,0,0,0,NA,NA,0,0,0,0,0,0,0,"0"
"596","Young","Few","Early","Normal",0,"None",0,1,7,0,0,NA,NA,NA,NA,NA,NA,NA,NA,NA,NA,NA,NA,NA,NA,0,NA,NA,0,0,0,0,0,0,0,"0"
"597","Young","Few","Normal","Normal",0,"None",0,1,0.1,0,0,0,0,0,0,0,0,0,0,0,0,0,0,0,0,0,NA,NA,0,0,0,0,0,0,0,"0"
"598","Young","Few","Early","Normal",0,"None",0,1,1,0,0,1,3,1,0,0,1,0,0,0,0,0,1,0,0,2,5,2,0,0,0,0,0,0,0,"0"
"599","Young","Few","Early","Normal",0,"None",0,0,0,0,0,0,0,0,0,0,0,0,0,0,0,0,0,0,0,0,NA,NA,0,0,0,0,1,1,0,"1"
"600","Young","Few","Normal","Normal",1,"Normal",0.8,1,1,0,0,0,0,0,0,0,0,0,0,0,0,0,0,0,0,0,NA,NA,0,0,0,0,0,0,0,"0"
"601","Midlife","Normal","Late","Normal",0,"None",0,0,0,0,0,0,0,0,0,0,0,0,0,0,0,0,0,0,0,0,NA,NA,0,0,0,0,0,0,0,"0"
"602","Midlife","Normal","Normal","Normal",0,"None",0,1,6,0,0,0,0,0,0,0,0,0,0,0,0,0,0,0,0,0,NA,NA,0,0,0,0,0,0,0,"0"
"603","Midlife","Normal","Normal","Normal",0,"None",0,1,1,1,5,0,0,0,0,0,0,0,0,0,0,0,0,0,0,0,NA,NA,0,0,0,0,0,0,0,"0"
"604","Young","Normal","Normal","Normal",0,"None",0,NA,NA,NA,NA,NA,NA,NA,NA,NA,NA,NA,NA,NA,NA,NA,NA,NA,NA,0,NA,NA,0,0,0,0,0,0,0,"0"
"605","Young","Normal","Normal","Normal",0,"None",0,0,0,0,0,0,0,0,0,0,0,0,0,0,0,0,0,0,0,0,NA,NA,0,0,0,0,0,0,0,"0"
"606","Young","Few","Normal","Normal",0,"None",0,1,2,0,0,0,0,0,0,0,0,0,0,0,0,0,0,0,0,0,NA,NA,0,0,0,0,0,0,0,"0"
"607","Midlife","Normal","Normal","Many",0,"None",0,1,0.6,0,0,0,0,0,0,0,0,0,0,0,0,0,0,0,0,0,NA,NA,0,0,0,0,0,0,0,"0"
"608","Midlife","Few","Late","Normal",0,"None",0,NA,NA,NA,NA,NA,NA,NA,NA,NA,NA,NA,NA,NA,NA,NA,NA,NA,NA,0,NA,NA,0,0,0,0,0,0,0,"0"
"609","Young","Few","Normal","Normal",0,"None",0,1,2,0,0,0,0,0,0,0,0,0,0,0,0,0,0,0,0,0,NA,NA,0,0,0,0,0,0,0,"0"
"610","Young","Few","Normal","Normal",1,"Normal",2.2,1,2,0,0,0,0,0,0,0,0,0,0,0,0,0,0,0,0,0,NA,NA,0,0,0,0,0,0,0,"0"
"611","Young","Few","Normal","Normal",0,"None",0,0,0,1,3,0,0,0,0,0,0,0,0,0,0,0,0,0,0,0,NA,NA,1,0,1,1,1,1,0,"1"
"612","Young","Few","Normal","Normal",0,"None",0,0,0,0,0,0,0,0,0,0,0,0,0,0,0,0,0,0,0,0,NA,NA,0,0,0,0,0,0,1,"0"
"613","Young","Few","Early","Normal",1,"Few",0,1,0.3,0,0,0,0,0,0,0,0,0,0,0,0,0,0,0,0,0,NA,NA,0,0,0,0,0,0,0,"0"
"614","Young","Few","Early","Normal",0,"None",0,1,1,1,1,1,2,1,0,1,0,0,0,0,0,0,0,0,0,1,2,2,0,0,0,0,0,0,0,"0"
"615","Young","Few","Late","Normal",0,"None",0,1,0.8,0,0,1,2,1,0,0,1,0,0,0,0,0,0,0,0,1,1,1,0,0,0,0,0,1,1,"1"
"616","Midlife","Many","Early","Many",0,"None",0,1,20,0,0,0,0,0,0,0,0,0,0,0,0,0,0,0,0,0,NA,NA,0,0,0,0,0,0,0,"0"
"617","Young","Few","Normal","Normal",1,"Normal",0.2,1,3,0,0,0,0,0,0,0,0,0,0,0,0,0,0,0,0,0,NA,NA,0,0,0,0,0,0,0,"0"
"618","Young",NA,"Normal","Normal",0,"None",0,1,0.2,0,0,0,0,0,0,0,0,0,0,0,0,0,0,0,0,0,NA,NA,0,0,0,0,0,0,0,"0"
"619","Young","Few","Early","Normal",0,"None",0,1,0.2,0,0,0,0,0,0,0,0,0,0,0,0,0,0,0,0,0,NA,NA,0,0,0,0,0,0,0,"0"
"620","Young","Normal","Normal","Many",1,"Normal",1.2,NA,NA,NA,NA,NA,NA,NA,NA,NA,NA,NA,NA,NA,NA,NA,NA,NA,NA,0,NA,NA,0,0,0,0,0,0,0,"0"
"621","Young","Normal","Normal","Normal",1,"Normal",0.5,1,1,0,0,0,0,0,0,0,0,0,0,0,0,0,0,0,0,0,NA,NA,0,0,0,0,0,0,0,"0"
"622","Midlife","Few","Early","Many",0,"None",0,1,1.5,0,0,0,0,0,0,0,0,0,0,0,0,0,0,0,0,0,NA,NA,0,0,0,0,0,0,0,"0"
"623","Midlife","Few","Normal","Normal",0,"None",0,1,0.2,0,0,0,0,0,0,0,0,0,0,0,0,0,0,0,0,0,NA,NA,0,0,0,0,0,0,0,"0"
"624","Young","Few","Normal","Normal",0,"None",0,1,0.2,1,3,0,0,0,0,0,0,0,0,0,0,0,0,0,0,0,NA,NA,0,0,0,0,0,0,0,"0"
"625","Young","Few","Early","Normal",0,"None",0,1,1.5,0,0,0,0,0,0,0,0,0,0,0,0,0,0,0,0,0,NA,NA,0,0,0,0,0,0,0,"0"
"626","Young","Few","Normal","Normal",0,"None",0,0,0,0,0,0,0,0,0,0,0,0,0,0,0,0,0,0,0,0,NA,NA,0,0,0,0,0,0,0,"0"
"627","Midlife","Normal","Normal","Normal",0,"None",0,1,0.1,0,0,0,0,0,0,0,0,0,0,0,0,0,0,0,0,0,NA,NA,0,0,0,0,0,0,0,"0"
"628","Young","Few","Early","Normal",0,"None",0,0,0,0,0,0,0,0,0,0,0,0,0,0,0,0,0,0,0,0,NA,NA,0,0,0,0,0,0,0,"0"
"629","Midlife","Few","Early","Many",0,"None",0,1,20,0,0,0,0,0,0,0,0,0,0,0,0,0,0,0,0,0,NA,NA,0,0,0,0,0,0,0,"0"
"630","Young","Few","Normal","Normal",0,"None",0,1,6,0,0,0,0,0,0,0,0,0,0,0,0,0,0,0,0,0,NA,NA,0,0,0,0,0,0,0,"0"
"631","Young","Few","Normal","Many",0,"None",0,1,3.5,0,0,0,0,0,0,0,0,0,0,0,0,0,0,0,0,0,NA,NA,0,0,0,0,0,0,0,"0"
"632","Young","Normal","Early","Normal",1,"Few",3,0,0,0,0,0,0,0,0,0,0,0,0,0,0,0,0,0,0,0,NA,NA,0,0,0,0,0,0,0,"0"
"633","Young","Few","Early","Normal",0,"None",0,1,3,0,0,0,0,0,0,0,0,0,0,0,0,0,0,0,0,0,NA,NA,0,0,0,0,0,0,0,"0"
"634","Young","Few","Normal","Normal",0,"None",0,NA,NA,NA,NA,NA,NA,NA,NA,NA,NA,NA,NA,NA,NA,NA,NA,NA,NA,0,NA,NA,0,0,0,0,0,0,0,"0"
"635","Midlife","Many","Normal","Normal",0,"None",0,0,0,0,0,0,0,0,0,0,0,0,0,0,0,0,0,0,0,0,NA,NA,0,0,0,0,0,0,0,"0"
"636","Midlife","Few","Normal","Many",0,"None",0,1,0.2,0,0,0,0,0,0,0,0,0,0,0,0,0,0,0,0,0,NA,NA,0,0,0,0,0,0,0,"0"
"637","Midlife","Normal","Normal","Many",0,"None",0,0,0,0,0,0,0,0,0,0,0,0,0,0,0,0,0,0,0,0,NA,NA,0,0,0,0,0,0,0,"0"
"638","Midlife","Few","Normal","Many",0,"None",0,1,7,0,0,0,0,0,0,0,0,0,0,0,0,0,0,0,0,0,NA,NA,0,0,0,0,0,0,0,"0"
"639","Young","Few","Normal","Normal",0,"None",0,0,0,0,0,0,0,0,0,0,0,0,0,0,0,0,0,0,0,0,NA,NA,0,0,0,0,0,0,0,"0"
"640","Young","Few","Early","Normal",0,"None",0,0,0,0,0,0,0,0,0,0,0,0,0,0,0,0,0,0,0,0,NA,NA,0,0,0,0,0,0,0,"0"
"641","Midlife","Normal","Normal","Normal",0,"None",0,1,8,0,0,0,0,0,0,0,0,0,0,0,0,0,0,0,0,0,NA,NA,0,0,0,0,0,0,0,"0"
"642","Midlife","Few","Normal","Normal",0,"None",0,1,3,0,0,0,0,0,0,0,0,0,0,0,0,0,0,0,0,0,NA,NA,0,0,0,0,0,0,0,"0"
"643","Midlife","Many","Normal","Many",0,"None",0,0,0,0,0,0,0,0,0,0,0,0,0,0,0,0,0,0,0,0,NA,NA,0,0,0,0,0,0,0,"0"
"644","Young","Normal","Early","Normal",1,"Few",0.1,1,0.1,0,0,0,0,0,0,0,0,0,0,0,0,0,0,0,0,0,NA,NA,0,0,0,0,0,0,1,"0"
"645","Young","Few","Normal","Normal",0,"None",0,1,6,0,0,0,0,0,0,0,0,0,0,0,0,0,0,0,0,0,NA,NA,0,0,0,0,1,1,0,"0"
"646","Midlife","Normal","Normal","Many",0,"None",0,0,0,0,0,1,1,0,0,0,0,0,0,0,1,0,0,0,0,1,1,1,0,0,0,0,0,0,0,"0"
"647","Young","Few","Early","Normal",0,"None",0,1,0.2,0,0,0,0,0,0,0,0,0,0,0,0,0,0,0,0,0,NA,NA,0,0,0,0,0,1,1,"0"
"648","Young",NA,"Early","Normal",0,"None",0,1,6,0,0,0,0,0,0,0,0,0,0,0,0,0,0,0,0,0,NA,NA,0,0,0,0,0,0,0,"0"
"649","Young","Few","Normal","Normal",NA,NA,NA,0,0,0,0,1,3,1,0,0,1,0,0,0,0,0,1,0,0,2,19,1,0,0,0,0,0,0,0,"0"
"650","Midlife","Few","Normal","Normal",1,"Normal",0.9,1,10,0,0,0,0,0,0,0,0,0,0,0,0,0,0,0,0,0,NA,NA,0,0,0,0,0,0,1,"0"
"651","Young","Few","Normal",NA,1,"Normal",1,1,3,0,0,0,0,0,0,0,0,0,0,0,0,0,0,0,0,0,NA,NA,0,0,0,0,0,0,0,"0"
"652","Midlife","Normal","Normal",NA,0,"None",0,1,8,0,0,0,0,0,0,0,0,0,0,0,0,0,0,0,0,0,NA,NA,0,0,0,0,0,0,0,"0"
"653","Older","Few","Early",NA,0,"None",0,0,0,1,0.4,0,0,0,0,0,0,0,0,0,0,0,0,0,0,0,NA,NA,0,1,0,1,0,0,0,"0"
"654","Young","Few","Normal",NA,0,"None",0,1,3,0,0,0,0,0,0,0,0,0,0,0,0,0,0,0,0,0,NA,NA,0,1,0,1,0,0,0,"1"
"655","Midlife","Few","Normal",NA,0,"None",0,1,6,1,5,0,0,0,0,0,0,0,0,0,0,0,0,0,0,0,NA,NA,0,1,0,1,0,0,0,"0"
"656","Young","Normal","Normal","None",0,"None",0,0,0,0,0,0,0,0,0,0,0,0,0,0,0,0,0,0,0,0,NA,NA,0,1,0,1,0,0,0,"1"
"657","Young","Few","Normal","Normal",0,"None",0,1,1,0,0,0,0,0,0,0,0,0,0,0,0,0,0,0,0,0,NA,NA,0,0,0,0,0,0,0,"0"
"658","Young","Few","Normal","Normal",0,"None",0,1,9,0,0,0,0,0,0,0,0,0,0,0,0,0,0,0,0,0,NA,NA,0,0,0,0,0,0,0,"0"
"659","Young","Few","Early","Normal",0,"None",0,1,1,0,0,0,0,0,0,0,0,0,0,0,0,0,0,0,0,0,NA,NA,0,0,0,0,0,0,0,"0"
"660","Midlife","Normal","Normal","Normal",0,"None",0,1,0.4,0,0,0,0,0,0,0,0,0,0,0,0,0,0,0,0,0,NA,NA,0,0,0,0,0,0,0,"0"
"661","Young","Few","Early","Normal",0,"None",0,0,0,0,0,0,0,0,0,0,0,0,0,0,0,0,0,0,0,0,NA,NA,0,0,0,0,0,0,0,"0"
"662","Young","Normal","Normal","Normal",0,"None",0,1,0.2,0,0,0,0,0,0,0,0,0,0,0,0,0,0,0,0,0,NA,NA,0,0,0,0,0,0,0,"0"
"663","Midlife","Normal","Normal","Many",1,"Many",22,1,0.2,0,0,0,0,0,0,0,0,0,0,0,0,0,0,0,0,0,NA,NA,0,0,0,0,0,0,0,"0"
"664","Young","Few","Normal","Normal",0,"None",0,0,0,0,0,0,0,0,0,0,0,0,0,0,0,0,0,0,0,0,NA,NA,0,0,0,0,0,0,0,"0"
"665","Midlife","Normal","Normal","Many",0,"None",0,1,16,1,3,0,0,0,0,0,0,0,0,0,0,0,0,0,0,0,NA,NA,0,0,0,0,1,1,1,"1"
"666","Young","Few","Early","Normal",0,"None",0,1,5,0,0,0,0,0,0,0,0,0,0,0,0,0,0,0,0,0,NA,NA,0,0,0,0,0,0,1,"0"
"667","Young","Normal","Early","Normal",0,"None",0,1,0.2,0,0,0,0,0,0,0,0,0,0,0,0,0,0,0,0,0,NA,NA,0,0,0,0,0,0,0,"0"
"668","Older","Few","Normal","Many",0,"None",0,0,0,0,0,0,0,0,0,0,0,0,0,0,0,0,0,0,0,0,NA,NA,0,0,0,0,0,0,0,"0"
"669","Older","Normal","Normal","Many",1,"Many",0.5,0,0,0,0,0,0,0,0,0,0,0,0,0,0,0,0,0,0,0,NA,NA,0,0,0,0,0,1,0,"0"
"670","Midlife","Normal","Late","Normal",NA,NA,NA,1,3,1,6,0,0,0,0,0,0,0,0,0,0,0,0,0,0,0,NA,NA,1,0,1,1,0,1,0,"0"
"671","Midlife","Few","Normal","Normal",0,"None",0,1,20,0,0,0,0,0,0,0,0,0,0,0,0,0,0,0,0,0,NA,NA,0,0,0,0,0,1,1,"1"
"672","Older","Few","Normal","Many",0,"None",0,0,0,1,11,0,0,0,0,0,0,0,0,0,0,0,0,0,0,0,NA,NA,0,0,0,0,0,1,0,"1"
"673","Young","Few","Early","None",0,"None",0,0,0,0,0,0,0,0,0,0,0,0,0,0,0,0,0,0,0,0,NA,NA,0,0,0,0,0,0,0,"0"
"674","Midlife","Normal","Normal","Many",0,"None",0,1,10,1,1,0,0,0,0,0,0,0,0,0,0,0,0,0,0,0,NA,NA,0,0,0,0,0,1,0,"1"
"675","Midlife","Normal","Normal","Many",0,"None",0,1,1,0,0,1,2,1,0,0,1,0,0,0,0,0,0,0,0,1,18,18,0,0,0,0,0,0,0,"0"
"676","Midlife","Few","Normal","Normal",0,"None",0,1,6,0,0,0,0,0,0,0,0,0,0,0,0,0,0,0,0,0,NA,NA,0,0,0,0,0,0,0,"0"
"677","Older","Normal","Late","Normal",1,"Few",0.8,0,0,0,0,0,0,0,0,0,0,0,0,0,0,0,0,0,0,0,NA,NA,0,0,0,0,0,0,0,"0"
"678","Midlife","Few","Early","None",0,"None",0,0,0,0,0,0,0,0,0,0,0,0,0,0,0,0,0,0,0,0,NA,NA,0,0,0,0,0,0,0,"0"
"679","Midlife","Few","Normal","Normal",0,"None",0,1,0.2,0,0,0,0,0,0,0,0,0,0,0,0,0,0,0,0,0,NA,NA,0,0,0,0,0,0,0,"0"
"680","Older","Few","Normal","Many",0,"None",0,1,5,0,0,0,0,0,0,0,0,0,0,0,0,0,0,0,0,0,NA,NA,0,0,0,0,0,0,0,"0"
"681","Midlife","Normal","Early","Normal",0,"None",0,0,0,0,0,0,0,0,0,0,0,0,0,0,0,0,0,0,0,0,NA,NA,0,0,0,0,0,0,0,"0"
"682","Midlife","Few","Late","None",0,"None",0,1,8,0,0,0,0,0,0,0,0,0,0,0,0,0,0,0,0,0,NA,NA,0,0,0,0,0,0,0,"0"
"683","Older","Few","Normal","Many",0,"None",0,0,0,1,3,0,0,0,0,0,0,0,0,0,0,0,0,0,0,0,NA,NA,0,0,0,0,0,0,0,"0"
"684","Midlife","Few","Normal","Normal",0,"None",0,1,3,1,1,0,0,0,0,0,0,0,0,0,0,0,0,0,0,0,NA,NA,0,0,0,0,0,0,0,"0"
"685","Midlife","Few","Early","Many",0,"None",0,0,0,0,0,0,0,0,0,0,0,0,0,0,0,0,0,0,0,0,NA,NA,0,0,0,0,0,0,0,"0"
"686","Midlife","Few","Early","Many",0,"None",0,1,2,0,0,1,1,0,0,0,0,1,0,0,0,0,0,0,0,1,3,3,0,0,0,0,0,0,0,"0"
"687","Midlife","Normal","Normal","Normal",0,"None",0,0,0,0,0,0,0,0,0,0,0,0,0,0,0,0,0,0,0,0,NA,NA,0,0,0,0,0,1,0,"1"
"688","Midlife","Normal","Normal","Many",1,"Normal",1.4,1,1,0,0,1,1,0,0,0,0,0,0,0,0,0,1,0,0,1,16,16,0,0,0,0,0,1,1,"1"
"689","Midlife","Normal","Early","Many",0,"None",0,0,0,0,0,0,0,0,0,0,0,0,0,0,0,0,0,0,0,0,NA,NA,0,0,0,0,0,1,1,"1"
"690","Young","Few","Late",NA,0,"None",0,1,1,0,0,0,0,0,0,0,0,0,0,0,0,0,0,0,0,0,NA,NA,0,0,0,0,0,0,0,"0"
"691","Young","Few","Early",NA,0,"None",0,1,0.1,0,0,0,0,0,0,0,0,0,0,0,0,0,0,0,0,0,NA,NA,0,0,0,0,0,0,0,"0"
"692","Young","Few","Normal",NA,1,"Normal",1.4,1,3,0,0,1,2,1,0,0,1,0,0,0,0,0,0,0,0,1,7,7,0,0,0,0,0,1,0,"0"
"693","Young","Few","Early",NA,0,"None",0,1,0.4,0,0,0,0,0,0,0,0,0,0,0,0,0,0,0,0,0,NA,NA,0,0,0,0,0,0,0,"0"
"694","Young","Few","Normal",NA,0,"None",0,0,0,0,0,0,0,0,0,0,0,0,0,0,0,0,0,0,0,0,NA,NA,0,0,0,0,0,1,0,"1"
"695","Midlife","Few","Early",NA,0,"None",0,0,0,0,0,0,0,0,0,0,0,0,0,0,0,0,0,0,0,0,NA,NA,0,0,0,0,0,0,0,"0"
"696","Midlife","Normal","Normal",NA,0,"None",0,1,0.8,0,0,0,0,0,0,0,0,0,0,0,0,0,0,0,0,0,NA,NA,0,0,0,0,0,0,0,"0"
"697","Young","Few","Normal",NA,1,"Few",0,NA,NA,NA,NA,NA,NA,NA,NA,NA,NA,NA,NA,NA,NA,NA,NA,NA,NA,0,NA,NA,0,0,0,0,0,0,0,"0"
"698","Young","Few","Early",NA,0,"None",0,1,1,0,0,0,0,0,0,0,0,0,0,0,0,0,0,0,0,0,NA,NA,0,0,0,0,0,0,0,"0"
"699","Midlife","Normal","Normal",NA,0,"None",0,0,0,0,0,0,0,0,0,0,0,0,0,0,0,0,0,0,0,0,NA,NA,0,0,0,0,0,0,0,"0"
"700","Young","Normal","Early",NA,1,"Few",0.5,0,0,0,0,0,0,0,0,0,0,0,0,0,0,0,0,0,0,0,NA,NA,0,0,0,0,0,0,0,"0"
"701","Midlife","Few","Normal",NA,0,"None",0,NA,NA,NA,NA,NA,NA,NA,NA,NA,NA,NA,NA,NA,NA,NA,NA,NA,NA,0,NA,NA,0,0,0,0,0,0,0,"0"
"702","Midlife","Few","Normal",NA,0,"None",0,NA,NA,NA,NA,NA,NA,NA,NA,NA,NA,NA,NA,NA,NA,NA,NA,NA,NA,0,NA,NA,0,0,0,0,0,0,0,"0"
"703","Young","Normal","Early",NA,0,"None",0,1,0.2,0,0,0,0,0,0,0,0,0,0,0,0,0,0,0,0,0,NA,NA,0,0,0,0,0,0,0,"0"
"704","Young","Few","Early",NA,0,"None",0,1,2,0,0,0,0,0,0,0,0,0,0,0,0,0,0,0,0,0,NA,NA,0,0,0,0,0,0,0,"0"
"705","Midlife","Normal","Normal",NA,1,"Normal",2.5,0,0,0,0,0,0,0,0,0,0,0,0,0,0,0,0,0,0,0,NA,NA,0,0,0,0,0,1,0,"0"
"706","Midlife","Normal","Late",NA,0,"None",0,NA,NA,NA,NA,NA,NA,NA,NA,NA,NA,NA,NA,NA,NA,NA,NA,NA,NA,0,NA,NA,0,0,0,0,0,0,0,"0"
"707","Young","Few","Normal",NA,0,"None",0,1,0.2,0,0,0,0,0,0,0,0,0,0,0,0,0,0,0,0,0,NA,NA,0,0,0,0,0,0,0,"0"
"708","Young","Few","Normal",NA,0,"None",0,0,0,0,0,0,0,0,0,0,0,0,0,0,0,0,0,0,0,0,NA,NA,0,0,0,0,0,0,0,"0"
"709","Young","Few","Late",NA,0,"None",0,0,0,0,0,0,0,0,0,0,0,0,0,0,0,0,0,0,0,0,NA,NA,0,0,0,0,0,0,0,"0"
"710","Young","Few","Normal","Normal",0,"None",0,1,9,0,0,0,0,0,0,0,0,0,0,0,0,0,0,0,0,0,NA,NA,0,0,0,0,0,0,0,"0"
"711","Midlife","Few","Normal","Normal",0,"None",0,1,4,0,0,0,0,0,0,0,0,0,0,0,0,0,0,0,0,0,NA,NA,0,0,0,0,0,0,0,"0"
"712","Young","Few","Early","Normal",0,"None",0,1,0.5,0,0,0,0,0,0,0,0,0,0,0,0,0,0,0,0,0,NA,NA,0,0,0,0,0,0,0,"0"
"713","Young","Normal","Normal","Normal",1,"Few",0.5,0,0,0,0,0,0,0,0,0,0,0,0,0,0,0,0,0,0,0,NA,NA,0,0,0,0,0,0,0,"0"
"714","Young","Few","Normal","Normal",0,"None",0,0,0,0,0,0,0,0,0,0,0,0,0,0,0,0,0,0,0,0,NA,NA,0,0,0,0,0,0,0,"0"
"715","Midlife","Few","Normal","Normal",0,"None",0,1,7,0,0,0,0,0,0,0,0,0,0,0,0,0,0,0,0,0,NA,NA,0,0,0,0,0,0,0,"0"
"716","Young","Few","Early","Normal",0,"None",0,0,0,0,0,0,0,0,0,0,0,0,0,0,0,0,0,0,0,0,NA,NA,0,0,0,0,0,0,0,"0"
"717","Young","Normal","Early","Normal",0,"None",0,0,0,0,0,0,0,0,0,0,0,0,0,0,0,0,0,0,0,0,NA,NA,0,0,0,0,0,0,0,"0"
"718","Midlife","Few","Early","Many",0,"None",0,1,12,1,0.2,0,0,0,0,0,0,0,0,0,0,0,0,0,0,0,NA,NA,0,0,0,0,0,0,0,"0"
"719","Young","Normal","Normal","Normal",0,"None",0,0,0,0,0,0,0,0,0,0,0,0,0,0,0,0,0,0,0,0,NA,NA,0,0,0,0,0,0,0,"0"
"720","Midlife","Few","Normal","Normal",0,"None",0,1,19,0,0,0,0,0,0,0,0,0,0,0,0,0,0,0,0,0,NA,NA,0,0,0,0,0,1,0,"0"
"721","Young","Few","Normal","Normal",0,"None",0,1,1,0,0,0,0,0,0,0,0,0,0,0,0,0,0,0,0,0,NA,NA,0,0,0,0,0,0,0,"0"
"722","Midlife","Few","Early","Many",0,"None",0,0,0,0,0,0,0,0,0,0,0,0,0,0,0,0,0,0,0,0,NA,NA,0,0,0,0,0,0,0,"0"
"723","Young","Normal","Early","Normal",1,"Normal",4,1,8,0,0,0,0,0,0,0,0,0,0,0,0,0,0,0,0,0,NA,NA,0,0,0,0,0,0,0,"0"
"724","Young","Few","Normal","Normal",1,"Normal",12,1,1,0,0,0,0,0,0,0,0,0,0,0,0,0,0,0,0,0,NA,NA,0,0,0,0,0,0,0,"0"
"725","Midlife","Few","Late","Normal",0,"None",0,1,0.2,0,0,0,0,0,0,0,0,0,0,0,0,0,0,0,0,0,NA,NA,0,0,0,0,0,0,0,"0"
"726","Young","Few","Normal","Normal",0,"None",0,1,5,0,0,0,0,0,0,0,0,0,0,0,0,0,0,0,0,0,NA,NA,0,0,0,0,0,0,0,"0"
"727","Midlife","Normal","Normal","Normal",0,"None",0,1,10,0,0,0,0,0,0,0,0,0,0,0,0,0,0,0,0,0,NA,NA,0,0,0,0,0,0,0,"0"
"728","Midlife","Few","Normal","Normal",0,"None",0,1,9,0,0,0,0,0,0,0,0,0,0,0,0,0,0,0,0,0,NA,NA,1,0,1,1,0,0,1,"0"
"729","Midlife","Normal","Late","Normal",0,"None",0,1,8,0,0,0,0,0,0,0,0,0,0,0,0,0,0,0,0,0,NA,NA,0,0,0,0,0,0,0,"0"
"730","Young","Normal","Normal","Normal",0,"None",0,1,1,0,0,0,0,0,0,0,0,0,0,0,0,0,0,0,0,0,NA,NA,0,0,0,0,0,0,0,"0"
"731","Midlife","Normal","Normal","Normal",0,"None",0,1,20,1,4,0,0,0,0,0,0,0,0,0,0,0,0,0,0,0,NA,NA,0,0,0,0,0,0,0,"0"
"732","Young","Few","Normal","Normal",0,"None",0,0,0,0,0,0,0,0,0,0,0,0,0,0,0,0,0,0,0,0,NA,NA,0,0,0,0,0,0,0,"0"
"733","Young","Few","Normal","Normal",0,"None",0,0,0,NA,NA,NA,NA,NA,NA,NA,NA,NA,NA,NA,NA,NA,NA,NA,NA,0,NA,NA,0,0,0,0,0,0,0,"0"
"734","Midlife","Few","Normal","Many",0,"None",0,1,3,0,0,0,0,0,0,0,0,0,0,0,0,0,0,0,0,0,NA,NA,0,0,0,0,0,0,0,"0"
"735","Midlife","Few","Normal","Normal",0,"None",0,1,8,1,0.5,0,0,0,0,0,0,0,0,0,0,0,0,0,0,0,NA,NA,0,0,0,0,0,0,0,"0"
"736","Young","Few","Early","Normal",1,"Few",0,NA,NA,NA,NA,NA,NA,NA,NA,NA,NA,NA,NA,NA,NA,NA,NA,NA,NA,0,NA,NA,0,0,0,0,0,0,0,"0"
"737","Midlife","Normal","Normal","Many",0,"None",0,1,2,0,0,0,0,0,0,0,0,0,0,0,0,0,0,0,0,0,NA,NA,0,0,0,0,0,0,0,"0"
"738","Young","Few","Normal","Normal",0,"None",0,0,0,0,0,0,0,0,0,0,0,0,0,0,0,0,0,0,0,0,NA,NA,0,0,0,0,0,0,0,"0"
"739","Midlife","Many","Normal","Normal",0,"None",0,0,0,0,0,0,0,0,0,0,0,0,0,0,0,0,0,0,0,0,NA,NA,1,0,1,1,0,0,0,"0"
"740","Midlife","Few","Normal","Normal",1,"Few",0.5,0,0,0,0,1,2,1,0,0,1,0,0,0,0,0,0,0,0,1,3,3,0,0,0,0,0,1,0,"1"
"741","Midlife","Few","Normal","Many",0,"None",0,0,0,0,0,0,0,0,0,0,0,0,0,0,0,0,0,0,0,0,NA,NA,0,0,0,0,0,0,0,"0"
"742","Young","Few","Early","Normal",0,"None",0,NA,NA,NA,NA,NA,NA,NA,NA,NA,NA,NA,NA,NA,NA,NA,NA,NA,NA,0,NA,NA,0,0,0,0,0,0,0,"0"
"743","Young","Many","Early","Normal",0,"None",0,1,0.2,0,0,1,2,1,0,0,1,0,0,0,0,0,0,0,0,1,4,4,0,0,0,0,0,0,0,"0"
"744","Midlife","Normal","Normal","Many",1,"Few",1.3,1,0.5,0,0,1,1,0,0,0,0,1,0,0,0,0,0,0,0,1,5,5,0,0,0,0,0,0,0,"0"
"745","Young","Normal","Early",NA,1,"Few",1,0,0,0,0,0,0,0,0,0,0,0,0,0,0,0,0,0,0,0,NA,NA,0,0,0,0,0,0,0,"0"
"746","Young","Few","Early",NA,0,"None",0,0,0,0,0,0,0,0,0,0,0,0,0,0,0,0,0,0,0,0,NA,NA,0,0,0,0,0,0,0,"0"
"747","Young","Few","Early","Many",0,"None",0,1,2,1,3,0,0,0,0,0,0,0,0,0,0,0,0,0,0,0,NA,NA,0,0,0,0,0,0,0,"0"
"748","Young","Few","Normal","Normal",0,"None",0,1,2,0,0,0,0,0,0,0,0,0,0,0,0,0,0,0,0,0,NA,NA,0,0,0,0,0,0,0,"0"
"749","Young","Normal","Early","Normal",0,"None",0,1,1,0,0,0,0,0,0,0,0,0,0,0,0,0,0,0,0,0,NA,NA,0,0,0,0,0,0,0,"0"
"750","Midlife","Normal","Normal","Normal",0,"None",0,1,3,0,0,1,2,1,0,0,1,0,0,0,0,0,0,0,0,1,1,1,0,0,0,0,0,0,0,"0"
"751","Young","Normal","Early","Normal",0,"None",0,0,0,0,0,0,0,0,0,0,0,0,0,0,0,0,0,0,0,0,NA,NA,0,0,0,0,0,1,1,"0"
"752","Midlife","Few","Normal","Normal",0,"None",0,NA,NA,NA,NA,NA,NA,NA,NA,NA,NA,NA,NA,NA,NA,NA,NA,NA,NA,0,NA,NA,0,0,0,0,0,0,0,"0"
"753","Midlife",NA,"Early","Many",0,"None",0,1,0.5,0,0,0,0,0,0,0,0,0,0,0,0,0,0,0,0,0,NA,NA,0,0,0,0,0,0,0,"0"
"754","Young","Few","Normal","Normal",0,"None",0,1,14,0,0,0,0,0,0,0,0,0,0,0,0,0,0,0,0,0,NA,NA,0,0,0,0,1,1,0,"1"
"755","Midlife","Normal","Normal","Many",0,"None",0,0,0,0,0,0,0,0,0,0,0,0,0,0,0,0,0,0,0,0,NA,NA,0,0,0,0,0,1,0,"1"
"756","Midlife","Few","Normal","Normal",1,"Normal",1.6,0,0,0,0,0,0,0,0,0,0,0,0,0,0,0,0,0,0,0,NA,NA,0,0,0,0,0,0,0,"0"
"757","Young","Normal","Normal","Normal",0,"None",0,1,1,1,3,0,0,0,0,0,0,0,0,0,0,0,0,0,0,0,NA,NA,0,0,0,0,0,1,0,"0"
"758","Young","Normal","Normal","Normal",0,"None",0,1,1,0,0,NA,NA,NA,NA,NA,NA,NA,NA,NA,NA,NA,NA,NA,NA,0,NA,NA,0,0,0,0,0,0,0,"0"
"759","Midlife","Normal","Normal","Normal",0,"None",0,0,0,0,0,0,0,0,0,0,0,0,0,0,0,0,0,0,0,0,NA,NA,0,0,0,0,0,0,0,"0"
"760","Young","Normal","Early","Normal",0,"None",0,0,0,0,0,0,0,0,0,0,0,0,0,0,0,0,0,0,0,0,NA,NA,0,0,0,0,0,0,1,"0"
"761","Young","Few","Early","Normal",0,"None",0,1,0.2,0,0,1,2,1,0,0,1,0,0,0,0,0,0,0,0,1,2,2,0,0,0,0,0,0,0,"0"
"762","Midlife",NA,"Normal","Many",1,"Few",0.5,NA,NA,NA,NA,NA,NA,NA,NA,NA,NA,NA,NA,NA,NA,NA,NA,NA,NA,0,NA,NA,0,0,0,0,0,0,0,"0"
"763","Young","Few","Normal","Normal",0,"None",0,NA,NA,NA,NA,NA,NA,NA,NA,NA,NA,NA,NA,NA,NA,NA,NA,NA,NA,0,NA,NA,0,0,0,0,0,0,0,"0"
"764","Midlife","Normal","Normal","Many",0,"None",0,1,1,1,4,0,0,0,0,0,0,0,0,0,0,0,0,0,0,0,NA,NA,1,0,1,1,0,0,0,"0"
"765","Young","Few","Early","Normal",0,"None",0,1,0.2,1,7,0,0,0,0,0,0,0,0,0,0,0,0,0,0,0,NA,NA,0,0,0,0,0,0,0,"0"
"766","Young","Normal","Early","Many",0,"None",0,1,3,0,0,0,0,0,0,0,0,0,0,0,0,0,0,0,0,0,NA,NA,0,1,0,1,0,0,0,"0"
"767","Young","Few","Early","Normal",0,"None",0,1,4,0,0,0,0,0,0,0,0,0,0,0,0,0,0,0,0,0,NA,NA,0,0,0,0,0,0,0,"0"
"768","Young","Few","Early","Normal",0,"None",0,NA,NA,NA,NA,NA,NA,NA,NA,NA,NA,NA,NA,NA,NA,NA,NA,NA,NA,0,NA,NA,0,0,0,0,0,0,0,"0"
"769","Young","Few","Normal","Normal",0,"None",0,0,0,0,0,0,0,0,0,0,0,0,0,0,0,0,0,0,0,0,NA,NA,0,0,0,0,0,0,0,"0"
"770","Young","Few","Early","Normal",0,"None",0,NA,NA,NA,NA,NA,NA,NA,NA,NA,NA,NA,NA,NA,NA,NA,NA,NA,NA,0,NA,NA,0,1,0,1,0,0,0,"0"
"771","Young","Normal","Early","Many",NA,NA,NA,1,3,1,2,1,1,0,0,0,0,1,0,0,0,0,0,0,0,1,2,2,0,0,0,0,0,0,0,"0"
"772","Midlife","Few","Normal","Normal",0,"None",0,NA,NA,NA,NA,NA,NA,NA,NA,NA,NA,NA,NA,NA,NA,NA,NA,NA,NA,0,NA,NA,0,0,0,0,0,0,0,"0"
"773","Young","Many","Early","Normal",0,"None",0,NA,NA,NA,NA,NA,NA,NA,NA,NA,NA,NA,NA,NA,NA,NA,NA,NA,NA,0,NA,NA,0,0,0,0,0,0,0,"0"
"774","Young","Few","Early","Normal",NA,NA,NA,NA,NA,0,0,0,0,0,0,0,0,0,0,0,0,0,0,0,0,0,NA,NA,0,0,0,0,0,0,0,"0"
"775","Midlife","Normal","Normal","Normal",1,"Many",7,0,0,1,2,0,0,0,0,0,0,0,0,0,0,0,0,0,0,0,NA,NA,0,0,0,0,0,0,0,"0"
"776","Midlife","Few","Early","Normal",0,"None",0,1,1,0,0,0,0,0,0,0,0,0,0,0,0,0,0,0,0,0,NA,NA,1,0,1,1,0,0,0,"0"
"777","Young","Few","Normal","Normal",0,"None",0,0,0,0,0,0,0,0,0,0,0,0,0,0,0,0,0,0,0,0,NA,NA,0,0,0,0,0,0,0,"0"
"778","Midlife","Normal","Late","Normal",0,"None",0,0,0,0,0,0,0,0,0,0,0,0,0,0,0,0,0,0,0,0,NA,NA,0,0,0,0,0,0,0,"0"
"779","Young","Few","Normal","Normal",0,"None",0,NA,NA,NA,NA,NA,NA,NA,NA,NA,NA,NA,NA,NA,NA,NA,NA,NA,NA,0,NA,NA,0,0,0,0,0,0,0,"0"
"780","Midlife","Few","Early","Many",0,"None",0,1,9,0,0,0,0,0,0,0,0,0,0,0,0,0,0,0,0,0,NA,NA,0,0,0,0,0,0,0,"0"
"781","Young","Normal","Early","Normal",1,"Few",1.2,1,2,0,0,0,0,0,0,0,0,0,0,0,0,0,0,0,0,0,NA,NA,0,0,0,0,0,0,0,"0"
"782","Midlife","Normal","Normal","Normal",NA,NA,NA,0,0,0,0,0,0,0,0,0,0,0,0,0,0,0,0,0,0,0,NA,NA,0,0,0,0,1,1,1,"1"
"783","Midlife","Normal","Early","Normal",1,"Normal",0.5,1,0.2,0,0,0,0,0,0,0,0,0,0,0,0,0,0,0,0,0,NA,NA,0,0,0,0,0,0,0,"0"
"784","Young","Few","Normal","Normal",0,"None",0,NA,NA,NA,NA,NA,NA,NA,NA,NA,NA,NA,NA,NA,NA,NA,NA,NA,NA,0,NA,NA,0,0,0,0,0,0,0,"0"
"785","Young","Many","Early","Normal",0,"None",0,1,2,0,0,0,0,0,0,0,0,0,0,0,0,0,0,0,0,0,NA,NA,0,0,0,0,0,0,0,"0"
"786","Midlife","Few","Normal","Normal",0,"None",0,NA,NA,NA,NA,NA,NA,NA,NA,NA,NA,NA,NA,NA,NA,NA,NA,NA,NA,0,NA,NA,0,0,0,0,0,0,0,"0"
"787","Young","Many","Normal","Normal",0,"None",0,1,2,0,0,1,3,1,0,0,1,0,0,0,0,0,1,0,0,1,4,4,0,0,0,0,0,1,1,"1"
"788","Young","Few","Early","Normal",0,"None",0,1,7,0,0,0,0,0,0,0,0,0,0,0,0,0,0,0,0,0,NA,NA,0,0,0,0,0,0,0,"0"
"789","Midlife","Few","Normal","Many",0,"None",0,1,30,NA,NA,NA,NA,NA,NA,NA,NA,NA,NA,NA,NA,NA,NA,NA,NA,0,NA,NA,0,0,0,0,0,0,1,"0"
"790","Young","Few","Normal","Normal",0,"None",0,0,0,0,0,1,2,1,0,0,1,0,0,0,0,0,0,0,0,1,1,1,0,0,0,0,0,0,0,"0"
"791","Young","Few","Normal","Normal",0,"None",0,1,0.5,0,0,0,0,0,0,0,0,0,0,0,0,0,0,0,0,0,NA,NA,0,0,0,0,0,0,0,"0"
"792","Young","Few","Early","Normal",0,"None",0,0,0,0,0,0,0,0,0,0,0,0,0,0,0,0,0,0,0,0,NA,NA,0,0,0,0,0,0,0,"0"
"793","Young","Normal","Early","Normal",1,"Normal",0.8,NA,NA,NA,NA,NA,NA,NA,NA,NA,NA,NA,NA,NA,NA,NA,NA,NA,NA,0,NA,NA,0,0,0,0,0,0,0,"0"
"794","Young","Few","Normal","Normal",0,"None",0,0,0,0,0,0,0,0,0,0,0,0,0,0,0,0,0,0,0,0,NA,NA,0,0,0,0,0,0,0,"0"
"795","Young","Few","Normal","Normal",0,"None",0,NA,NA,NA,NA,NA,NA,NA,NA,NA,NA,NA,NA,NA,NA,NA,NA,NA,NA,0,NA,NA,0,0,0,0,0,0,0,"0"
"796","Midlife","Normal","Normal","Normal",1,"Normal",2.7,1,17,0,0,0,0,0,0,0,0,0,0,0,0,0,0,0,0,0,NA,NA,0,0,0,0,0,0,0,"0"
"797","Midlife","Many","Normal","Many",0,"None",0,1,1,0,0,0,0,0,0,0,0,0,0,0,0,0,0,0,0,0,NA,NA,0,0,0,0,0,0,0,"0"
"798","Midlife","Normal","Normal","Normal",0,"None",0,1,0.2,1,3,0,0,0,0,0,0,0,0,0,0,0,0,0,0,0,NA,NA,1,0,1,1,1,1,0,"1"
"799","Young","Normal","Normal","Normal",0,"None",0,0,0,0,0,0,0,0,0,0,0,0,0,0,0,0,0,0,0,0,NA,NA,0,0,0,0,0,0,0,"0"
"800","Young","Normal","Early","Normal",0,"None",0,0,0,0,0,0,0,0,0,0,0,0,0,0,0,0,0,0,0,0,NA,NA,0,0,0,0,0,0,0,"0"
"801","Young","Few","Normal","Normal",0,"None",0,1,6,0,0,0,0,0,0,0,0,0,0,0,0,0,0,0,0,0,NA,NA,0,0,0,0,0,0,0,"0"
"802","Midlife","Normal","Normal","Normal",1,"Many",2,1,2,0,0,0,0,0,0,0,0,0,0,0,0,0,0,0,0,0,NA,NA,0,0,0,0,0,0,0,"0"
"803","Young","Few","Early","Normal",0,"None",0,1,0.2,0,0,0,0,0,0,0,0,0,0,0,0,0,0,0,0,0,NA,NA,0,0,0,0,0,0,0,"0"
"804","Young","Normal","Normal","Normal",0,"None",0,0,0,0,0,0,0,0,0,0,0,0,0,0,0,0,0,0,0,0,NA,NA,0,0,0,0,0,0,0,"0"
"805","Midlife","Many","Normal","Normal",1,"Normal",2.8,0,0,0,0,0,0,0,0,0,0,0,0,0,0,0,0,0,0,0,NA,NA,0,0,0,0,0,0,0,"0"
"806","Midlife","Normal","Early","Many",1,NA,0,1,7,0,0,0,0,0,0,0,0,0,0,0,0,0,0,0,0,0,NA,NA,0,0,0,0,0,0,0,"0"
"807","Young","Normal","Early","Normal",1,"Few",1,0,0,0,0,0,0,0,0,0,0,0,0,0,0,0,0,0,0,0,NA,NA,0,0,0,0,0,0,0,"0"
"808","Midlife","Few","Normal",NA,1,"Many",7.6,1,8,NA,NA,NA,NA,NA,NA,NA,NA,NA,NA,NA,NA,NA,NA,NA,NA,0,NA,NA,0,0,0,0,0,0,0,"0"
"809","Midlife",NA,"Early",NA,0,"None",0,0,0,0,0,0,0,0,0,0,0,0,0,0,0,0,0,0,0,0,NA,NA,0,0,0,0,0,0,0,"0"
"810","Midlife","Few","Early",NA,0,"None",0,0,0,1,5,0,0,0,0,0,0,0,0,0,0,0,0,0,0,0,NA,NA,0,0,0,0,0,0,0,"0"
"811","Young","Few","Early",NA,0,"None",0,1,0.8,0,0,0,0,0,0,0,0,0,0,0,0,0,0,0,0,0,NA,NA,0,0,0,0,0,0,0,"0"
"812","Young","Few","Normal",NA,0,"None",0,1,0.2,0,0,0,0,0,0,0,0,0,0,0,0,0,0,0,0,0,NA,NA,0,0,0,0,0,0,0,"0"
"813","Young","Normal","Normal",NA,0,"None",0,1,0.1,0,0,0,0,0,0,0,0,0,0,0,0,0,0,0,0,0,NA,NA,0,0,0,0,0,0,0,"0"
"814","Young","Few","Normal",NA,0,"None",0,1,1,0,0,0,0,0,0,0,0,0,0,0,0,0,0,0,0,0,NA,NA,0,0,0,0,0,0,0,"0"
"815","Young","Few","Early",NA,0,"None",0,1,0.4,NA,NA,NA,NA,NA,NA,NA,NA,NA,NA,NA,NA,NA,NA,NA,NA,0,NA,NA,0,0,0,0,0,0,0,"1"
"816","Midlife","Few","Normal",NA,0,"None",0,1,2,0,0,0,0,0,0,0,0,0,0,0,0,0,0,0,0,0,NA,NA,0,0,0,0,0,0,0,"0"
"817","Young","Few","Normal",NA,0,"None",0,1,0.5,NA,NA,NA,NA,NA,NA,NA,NA,NA,NA,NA,NA,NA,NA,NA,NA,0,NA,NA,0,0,0,0,0,0,0,"0"
"818","Midlife","Few","Late",NA,0,"None",0,0,0,0,0,0,0,0,0,0,0,0,0,0,0,0,0,0,0,0,NA,NA,0,0,0,0,0,0,0,"0"
"819","Midlife","Normal","Normal",NA,0,"None",0,1,2,0,0,0,0,0,0,0,0,0,0,0,0,0,0,0,0,0,NA,NA,0,0,0,0,0,0,0,"0"
"820","Young","Few","Early",NA,0,"None",0,NA,NA,0,0,0,0,0,0,0,0,0,0,0,0,0,0,0,0,0,NA,NA,0,0,0,0,0,0,0,"0"
"821","Young","Few","Normal",NA,0,"None",0,1,0.7,0,0,0,0,0,0,0,0,0,0,0,0,0,0,0,0,0,NA,NA,0,0,0,0,0,0,0,"0"
"822","Midlife","Normal","Normal","Normal",0,"None",0,1,3,0,0,0,0,0,0,0,0,0,0,0,0,0,0,0,0,0,NA,NA,0,0,0,0,0,0,0,"0"
"823","Midlife","Normal","Normal","Normal",0,"None",0,1,6,0,0,1,1,0,0,0,0,0,0,0,0,0,0,0,1,1,16,16,1,0,1,1,0,0,0,"0"
"824","Midlife","Normal","Normal","None",0,"None",0,0,0,0,0,0,0,0,0,0,0,0,0,0,0,0,0,0,0,0,NA,NA,0,0,0,0,0,0,0,"0"
"825","Midlife","Few","Late","Normal",0,"None",0,0,0,0,0,0,0,0,0,0,0,0,0,0,0,0,0,0,0,0,NA,NA,0,0,0,0,0,0,0,"0"
"826","Midlife","Normal","Normal","Normal",0,"None",0,0,0,0,0,0,0,0,0,0,0,0,0,0,0,0,0,0,0,0,NA,NA,0,0,0,0,0,0,0,"0"
"827","Midlife","Normal","Normal","None",0,"None",0,1,0.8,0,0,1,1,0,0,0,0,0,1,0,0,0,0,0,0,1,11,11,0,0,0,0,0,0,0,"0"
"828","Midlife","Normal","Normal","Normal",0,"None",0,0,0,0,0,0,0,0,0,0,0,0,0,0,0,0,0,0,0,0,NA,NA,0,0,0,0,0,0,0,"0"
"829","Midlife","Few","Late","None",0,"None",0,0,0,0,0,0,0,0,0,0,0,0,0,0,0,0,0,0,0,0,NA,NA,0,0,0,0,0,0,0,"0"
"830","Midlife","Normal","Early","Many",0,"None",0,0,0,0,0,0,0,0,0,0,0,0,0,0,0,0,0,0,0,0,NA,NA,0,0,0,0,0,0,0,"0"
"831","Midlife","Normal","Normal","Many",0,"None",0,0,0,0,0,0,0,0,0,0,0,0,0,0,0,0,0,0,0,0,NA,NA,0,0,0,0,0,0,0,"0"
"832","Midlife","Normal","Late","Normal",0,"None",0,0,0,0,0,1,1,0,0,0,0,0,0,0,0,0,1,0,0,1,8,8,0,0,0,0,0,0,0,"0"
"833","Midlife","Few","Normal","None",0,"None",0,1,1,0,0,0,0,0,0,0,0,0,0,0,0,0,0,0,0,0,NA,NA,0,0,0,0,0,0,0,"0"
"834","Midlife","Few",NA,"None",0,"None",0,0,0,0,0,0,0,0,0,0,0,0,0,0,0,0,0,0,0,0,NA,NA,0,0,0,0,0,0,0,"0"
"835","Midlife","Normal","Early","None",1,"Many",8,0,0,0,0,0,0,0,0,0,0,0,0,0,0,0,0,0,0,0,NA,NA,0,0,0,0,0,0,0,"0"
"836","Young","Few","Early","None",0,"None",0,0,0,0,0,0,0,0,0,0,0,0,0,0,0,0,0,0,0,0,NA,NA,0,0,0,0,0,0,0,"0"
"837","Midlife","Normal",NA,"None",0,"None",0,1,0.2,0,0,0,0,0,0,0,0,0,0,0,0,0,0,0,0,0,NA,NA,0,0,0,0,0,0,0,"0"
"838","Midlife","Many",NA,"Normal",1,"Normal",5.5,1,0.2,0,0,0,0,0,0,0,0,0,0,0,0,0,0,0,0,0,NA,NA,0,0,0,0,0,0,0,"0"
"839","Midlife","Normal","Normal","Normal",0,"None",0,1,5,0,0,0,0,0,0,0,0,0,0,0,0,0,0,0,0,0,NA,NA,0,0,0,0,0,0,0,"0"
"840","Midlife","Normal","Normal","Normal",0,"None",0,1,0.1,1,8,0,0,0,0,0,0,0,0,0,0,0,0,0,0,0,NA,NA,1,0,0,1,0,0,0,"0"
"841","Young","Few","Normal","Normal",0,"None",0,1,5,0,0,0,0,0,0,0,0,0,0,0,0,0,0,0,0,0,NA,NA,0,0,0,0,0,0,0,"0"
"842","Young","Few","Early","None",0,"None",0,0,0,0,0,0,0,0,0,0,0,0,0,0,0,0,0,0,0,0,NA,NA,0,0,0,0,0,0,0,"0"
"843","Midlife","Normal","Normal","Normal",1,"Normal",0.3,1,2,0,0,0,0,0,0,0,0,0,0,0,0,0,0,0,0,0,NA,NA,0,0,0,0,0,0,0,"0"
"844","Midlife","Normal","Early","Normal",0,"None",0,1,2,0,0,0,0,0,0,0,0,0,0,0,0,0,0,0,0,0,NA,NA,0,0,0,0,0,0,0,"0"
"845","Young","Many","Early","Normal",1,"Normal",1.4,1,5,1,0.2,0,0,0,0,0,0,0,0,0,0,0,0,0,0,0,NA,NA,0,0,0,0,0,0,0,"0"
"846","Young","Few","Early","Normal",0,"None",0,1,0.8,0,0,0,0,0,0,0,0,0,0,0,0,0,0,0,0,0,NA,NA,0,0,0,0,0,0,0,"0"
"847","Midlife","Few","Normal","Normal",0,"None",0,0,0,0,0,0,0,0,0,0,0,0,0,0,0,0,0,0,0,0,NA,NA,0,0,0,0,0,0,0,"0"
"848","Midlife","Normal","Late","Normal",0,"None",0,0,0,0,0,0,0,0,0,0,0,0,0,0,0,0,0,0,0,0,NA,NA,0,0,0,0,0,0,0,"0"
"849","Midlife","Normal","Normal","Normal",0,"None",0,1,0.5,0,0,0,0,0,0,0,0,0,0,0,0,0,0,0,0,0,NA,NA,0,0,0,0,0,0,0,"0"
"850","Midlife","Normal","Normal","Normal",1,"Normal",0.2,1,6,0,0,1,1,0,0,0,0,0,0,0,0,0,0,0,1,0,NA,NA,1,0,1,0,0,0,0,"0"
"851","Young","Few","Early","None",0,"None",0,0,0,0,0,0,0,0,0,0,0,0,0,0,0,0,0,0,0,0,NA,NA,0,0,0,0,0,0,0,"0"
"852","Young","Few","Early","Normal",0,"None",0,0,0,0,0,0,0,0,0,0,0,0,0,0,0,0,0,0,0,0,NA,NA,0,0,0,0,0,0,0,"0"
"853","Midlife","Normal","Normal","Normal",0,"None",0,1,5,0,0,0,0,0,0,0,0,0,0,0,0,0,0,0,0,0,NA,NA,0,0,0,0,0,0,0,"0"
"854","Midlife","Normal","Normal","None",0,"None",0,0,0,0,0,0,0,0,0,0,0,0,0,0,0,0,0,0,0,0,NA,NA,0,0,0,0,0,0,0,"0"
"855","Midlife","Few","Normal","Normal",0,"None",0,1,8,0,0,0,0,0,0,0,0,0,0,0,0,0,0,0,0,0,NA,NA,0,0,0,0,0,0,0,"0"
"856","Young","Few","Normal","None",0,"None",0,1,0.1,0,0,0,0,0,0,0,0,0,0,0,0,0,0,0,0,0,NA,NA,0,0,0,0,0,0,1,"0"
"857","Midlife","Few","Late","Normal",0,"None",0,1,0.1,0,0,0,0,0,0,0,0,0,0,0,0,0,0,0,0,0,NA,NA,0,0,0,0,0,0,0,"0"
"858","Midlife","Few","Normal","Normal",0,"None",0,1,0.5,0,0,0,0,0,0,0,0,0,0,0,0,0,0,0,0,0,NA,NA,0,0,0,0,0,0,0,"0"
